﻿"Id(no rellenar);Activo (0=No/1=No);Nombre;Categorias (x	y	""z...);Precio con Iva Incluido (PVP);Regla Impuestos (IVA) (1=21% 2=10% 3=4%);Precio mayorista;En venta 0=noO 1=si (0/1);Importe descuento;Descuento porcentual;Discount desde (yyyy-mm-dd);Discount hasta (yyyy-mm-dd);Referencia comercio;referencia proveedor;Proveedor;Fabricante;EAN13(código de barras);UPC;Ecotasa;ancho;alto;profundidad;Weight;Cantidad;Cantidad mínima;Visibilidad;Coste adicional envio;Unidad;ratio precio unitario;Descripción corta;Descripción larga;Tags (x""	y	""z...);meta_title;meta_keywords;meta_description;Enlace reescrito;Text cuando está en stock;Text when backorder allowed;Disponible para pedido (0 = No""	"" 1 = Yes);Fecha disponibilidad de producto;Fecha creación producto;Mostrar precio (0 = No""	"" 1 = Yes);Imagen URLs (x""	y	""z...);Borra imágenes existentes (0 = No""	"" 1 = Yes);Feature(Name:Value:Position);Disponible sólo online (0 = No""	"" 1 = Yes);Condición;Personalizabke (0 = No""	"" 1 = Yes);Uploadable files (0 = No""	"" 1 = Yes);Text fields (0 = No""	"" 1 = Yes);Out_of_stock;Advanced stock management;ID / Nombre de tiienda;carroceria;version;fecha_inicio;fecha_fin;puertas;despiece;regulacion;cristal;mano;caracteristicas"";;;;;;;;;;;;;;;;;;;;;;;;;;;;;;;;;;;;;;;;;;;;;;;;;;;;;;;;;;;;;;;;;;;;;;;;;;;;;;;;;;;;;;;;;;;;;;;;;;;;;;;;;;;;;;;;;;;;;;;;;;;;;;;;;;;;;;;;;;;;;;;;;;;;;;;;;;;;;;;;;;;;;;;;;;;;;;;;;;;;;;;;;;;;;;;;;;;;;;;;;;;;;;;;;;;;;;;;;;;;;;;;;;;;;;;;;;;;;;;;;;;;;;;;;;;;;;;;;;;;;;;;;;;;;;;;;;;;;;;;;;;;;;;;;;;;;;;;;;;;;;;;;;;;;;;;;;;;;;;;;;;;;;;;;;;;;;;;;;;;;;;;;;;;;;;;;;;;;;;;																																																														;;;;;;;;;;;;;;;;;;;;;;;;;;;;;;;;;;;;;;;;;;;;;;;;;;;;;;;;;;;;;;;;;;;;;;;;;;;;;;;;;;;;;;;;;;;;;;;;;;;;;;;;;;;;;;;;;;;;;;;;;;;;;;;;;;;;;;;;;;;;;;;;;;;;;;;;;;;;;;;;;;;;;;;;;;;;;;;;;;;;;;;;;;";;;;;;;;;;;;;;;;;;;;;;;;;;;;;;;;;;;;;;;;;;;;;;;;;;;;;;;;;;;;;;
;1;918039;21,254;16,71;;;1;;;;;918039;;;;;;;;;;1;2;;;;;;<li>Marca: Citroen </li><li>Modelo: C2 </li> <li>Fecha: (2003 - 2014 ) </li>  <li>Espejo retrovisor  Mecánico Convexo de mano DERECHA Negro</li></ul>;<li>Marca: Citroen </li><li>Modelo: C2 </li> <li>Fecha: (2003 - 2014 ) </li>  <li>Espejo retrovisor  Mecánico Convexo de mano DERECHA Negro</li></ul>;Marca: Citroen, Modelo: C2,Espejo retrovisor  Mecánico, Convexo, de mano DERECHA, Negro;;Marca: Citroen Modelo: C2Espejo retrovisor  Mecánico Convexo de mano DERECHA Negro;Marca: Citroen Modelo: C2Espejo retrovisor  Mecánico Convexo de mano DERECHA Negro;;;;1;;;1;http://www.2automocion.com/fotos/918039.jpg;;;;;1;1;1;;;1;;;2003;2014;;1;2;1;1;Negro
;1;918040;21,254;16,71;;;1;;;;;918040;;;;;;;;;;1;11;;;;;;<li>Marca: Citroen </li><li>Modelo: C2 </li> <li>Fecha: (2003 - 2014 ) </li>  <li>Espejo retrovisor  Mecánico Convexo de mano IZQUIERDA Negro</li></ul>;<li>Marca: Citroen </li><li>Modelo: C2 </li> <li>Fecha: (2003 - 2014 ) </li>  <li>Espejo retrovisor  Mecánico Convexo de mano IZQUIERDA Negro</li></ul>;Marca: Citroen, Modelo: C2,Espejo retrovisor  Mecánico, Convexo, de mano IZQUIERDA, Negro;;Marca: Citroen Modelo: C2Espejo retrovisor  Mecánico Convexo de mano IZQUIERDA Negro;Marca: Citroen Modelo: C2Espejo retrovisor  Mecánico Convexo de mano IZQUIERDA Negro;;;;1;;;1;http://www.2automocion.com/fotos/918040.jpg;;;;;1;1;1;;;1;;;2003;2014;;1;2;1;2;Negro
;1;918041;21,254;23,12;;;1;;;;;918041;;;;;;;;;;1;3;;;;;;<li>Marca: Citroen </li><li>Modelo: C2 </li> <li>Fecha: (2003 - 2014 ) </li>  <li>Espejo retrovisor  Eléctrico Convexo de mano DERECHA Negro</li></ul>;<li>Marca: Citroen </li><li>Modelo: C2 </li> <li>Fecha: (2003 - 2014 ) </li>  <li>Espejo retrovisor  Eléctrico Convexo de mano DERECHA Negro</li></ul>;Marca: Citroen, Modelo: C2,Espejo retrovisor  Eléctrico, Convexo, de mano DERECHA, Negro;;Marca: Citroen Modelo: C2Espejo retrovisor  Eléctrico Convexo de mano DERECHA Negro;Marca: Citroen Modelo: C2Espejo retrovisor  Eléctrico Convexo de mano DERECHA Negro;;;;1;;;1;http://www.2automocion.com/fotos/918041.jpg;;;;;1;1;1;;;1;;;2003;2014;;1;1;1;1;Negro
;1;918042;21,254;23,12;;;1;;;;;918042;;;;;;;;;;1;11;;;;;;<li>Marca: Citroen </li><li>Modelo: C2 </li> <li>Fecha: (2003 - 2014 ) </li>  <li>Espejo retrovisor  Eléctrico Convexo de mano IZQUIERDA Negro</li></ul>;<li>Marca: Citroen </li><li>Modelo: C2 </li> <li>Fecha: (2003 - 2014 ) </li>  <li>Espejo retrovisor  Eléctrico Convexo de mano IZQUIERDA Negro</li></ul>;Marca: Citroen, Modelo: C2,Espejo retrovisor  Eléctrico, Convexo, de mano IZQUIERDA, Negro;;Marca: Citroen Modelo: C2Espejo retrovisor  Eléctrico Convexo de mano IZQUIERDA Negro;Marca: Citroen Modelo: C2Espejo retrovisor  Eléctrico Convexo de mano IZQUIERDA Negro;;;;1;;;1;http://www.2automocion.com/fotos/918042.jpg;;;;;1;1;1;;;1;;;2003;2014;;1;1;1;2;Negro
;1;918043;21,254;33,12;;;1;;;;;918043;;;;;;;;;;1;5;;;;;;<li>Marca: Citroen </li><li>Modelo: C2 </li> <li>Fecha: (2003 - 2014 ) </li>  <li>Espejo retrovisor  Eléctrico Convexo de mano DERECHA Térmico Negro Sensor de Temperatura</li></ul>;<li>Marca: Citroen </li><li>Modelo: C2 </li> <li>Fecha: (2003 - 2014 ) </li>  <li>Espejo retrovisor  Eléctrico Convexo de mano DERECHA Térmico Negro Sensor de Temperatura</li></ul>;Marca: Citroen, Modelo: C2,Espejo retrovisor  Eléctrico, Convexo, de mano DERECHA, Térmico Negro Sensor de Temperatura;;Marca: Citroen Modelo: C2Espejo retrovisor  Eléctrico Convexo de mano DERECHA Térmico Negro Sensor de Temperatura;Marca: Citroen Modelo: C2Espejo retrovisor  Eléctrico Convexo de mano DERECHA Térmico Negro Sensor de Temperatura;;;;1;;;1;http://www.2automocion.com/fotos/918043.jpg;;;;;1;1;1;;;1;;;2003;2014;;1;1;1;1;Térmico Negro Sensor de Temperatura
;1;918044;21,254;33,12;;;1;;;;;918044;;;;;;;;;;1;2;;;;;;<li>Marca: Citroen </li><li>Modelo: C2 </li> <li>Fecha: (2003 - 2014 ) </li>  <li>Espejo retrovisor  Eléctrico Convexo de mano IZQUIERDA Térmico Negro</li></ul>;<li>Marca: Citroen </li><li>Modelo: C2 </li> <li>Fecha: (2003 - 2014 ) </li>  <li>Espejo retrovisor  Eléctrico Convexo de mano IZQUIERDA Térmico Negro</li></ul>;Marca: Citroen, Modelo: C2,Espejo retrovisor  Eléctrico, Convexo, de mano IZQUIERDA, Térmico Negro;;Marca: Citroen Modelo: C2Espejo retrovisor  Eléctrico Convexo de mano IZQUIERDA Térmico Negro;Marca: Citroen Modelo: C2Espejo retrovisor  Eléctrico Convexo de mano IZQUIERDA Térmico Negro;;;;1;;;1;http://www.2automocion.com/fotos/918044.jpg;;;;;1;1;1;;;1;;;2003;2014;;1;1;1;2;Térmico Negro
;1;670088;21,254;4,37;;;1;;;;;670088;;;;;;;;;;1;23;;;;;;<li>CRISTAL  Convexo de mano DERECHA Negro</li></ul>;<li>CRISTAL  Convexo de mano DERECHA Negro</li></ul>;Marca: Citroen, Modelo: C2,Espejo retrovisor CRISTAL, , Convexo, de mano DERECHA, Negro;;Marca: Citroen Modelo: C2Espejo retrovisor CRISTAL  Convexo de mano DERECHA Negro;Marca: Citroen Modelo: C2Espejo retrovisor CRISTAL  Convexo de mano DERECHA Negro;;;;1;;;1;http://www.2automocion.com/fotos/670088.jpg;;;;;1;1;1;;;1;;;2003;2014;;2;;1;1;Negro
;1;670087;21,254;4,37;;;1;;;;;670087;;;;;;;;;;1;32;;;;;;<li>CRISTAL  Convexo de mano IZQUIERDA Negro</li></ul>;<li>CRISTAL  Convexo de mano IZQUIERDA Negro</li></ul>;Marca: Citroen, Modelo: C2,Espejo retrovisor CRISTAL, , Convexo, de mano IZQUIERDA, Negro;;Marca: Citroen Modelo: C2Espejo retrovisor CRISTAL  Convexo de mano IZQUIERDA Negro;Marca: Citroen Modelo: C2Espejo retrovisor CRISTAL  Convexo de mano IZQUIERDA Negro;;;;1;;;1;http://www.2automocion.com/fotos/670087.jpg;;;;;1;1;1;;;1;;;2003;2014;;2;;1;2;Negro
;1;670086;21,254;5,31;;;1;;;;;670086;;;;;;;;;;1;36;;;;;;<li>CRISTAL  Asférico de mano IZQUIERDA Negro</li></ul>;<li>CRISTAL  Asférico de mano IZQUIERDA Negro</li></ul>;Marca: Citroen, Modelo: C2,Espejo retrovisor CRISTAL, , Asférico, de mano IZQUIERDA, Negro;;Marca: Citroen Modelo: C2Espejo retrovisor CRISTAL  Asférico de mano IZQUIERDA Negro;Marca: Citroen Modelo: C2Espejo retrovisor CRISTAL  Asférico de mano IZQUIERDA Negro;;;;1;;;1;http://www.2automocion.com/fotos/670086.jpg;;;;;1;1;1;;;1;;;2003;2014;;2;;3;2;Negro
;1;670102;21,254;6,09;;;1;;;;;670102;;;;;;;;;;1;17;;;;;;<li>CRISTAL  Convexo de mano DERECHA Térmico Negro</li></ul>;<li>CRISTAL  Convexo de mano DERECHA Térmico Negro</li></ul>;Marca: Citroen, Modelo: C2,Espejo retrovisor CRISTAL, , Convexo, de mano DERECHA, Térmico Negro;;Marca: Citroen Modelo: C2Espejo retrovisor CRISTAL  Convexo de mano DERECHA Térmico Negro;Marca: Citroen Modelo: C2Espejo retrovisor CRISTAL  Convexo de mano DERECHA Térmico Negro;;;;1;;;1;http://www.2automocion.com/fotos/670102.jpg;;;;;1;1;1;;;1;;;2003;2014;;2;;1;1;Térmico Negro
;1;670103;21,254;6,09;;;1;;;;;670103;;;;;;;;;;1;16;;;;;;<li>CRISTAL  Convexo de mano IZQUIERDA Térmico Negro</li></ul>;<li>CRISTAL  Convexo de mano IZQUIERDA Térmico Negro</li></ul>;Marca: Citroen, Modelo: C2,Espejo retrovisor CRISTAL, , Convexo, de mano IZQUIERDA, Térmico Negro;;Marca: Citroen Modelo: C2Espejo retrovisor CRISTAL  Convexo de mano IZQUIERDA Térmico Negro;Marca: Citroen Modelo: C2Espejo retrovisor CRISTAL  Convexo de mano IZQUIERDA Térmico Negro;;;;1;;;1;http://www.2automocion.com/fotos/670103.jpg;;;;;1;1;1;;;1;;;2003;2014;;2;;1;2;Térmico Negro
;1;918025;21,259;16,09;;;1;;;;;918025;;;;;;;;;;1;17;;;;;;<li>Marca: Citroen </li><li>Modelo: C3 </li> <li>Fecha: (2002 - 2009 ) </li>  <li>Espejo retrovisor  Mecánico Convexo de mano DERECHA Negro</li></ul>;<li>Marca: Citroen </li><li>Modelo: C3 </li> <li>Fecha: (2002 - 2009 ) </li>  <li>Espejo retrovisor  Mecánico Convexo de mano DERECHA Negro</li></ul>;Marca: Citroen, Modelo: C3,Espejo retrovisor  Mecánico, Convexo, de mano DERECHA, Negro;;Marca: Citroen Modelo: C3Espejo retrovisor  Mecánico Convexo de mano DERECHA Negro;Marca: Citroen Modelo: C3Espejo retrovisor  Mecánico Convexo de mano DERECHA Negro;;;;1;;;1;http://www.2automocion.com/fotos/918025.jpg;;;;;1;1;1;;;1;;;2002;2009;;1;2;1;1;Negro
;1;918026;21,259;16,09;;;1;;;;;918026;;;;;;;;;;1;35;;;;;;<li>Marca: Citroen </li><li>Modelo: C3 </li> <li>Fecha: (2002 - 2009 ) </li>  <li>Espejo retrovisor  Mecánico Convexo de mano IZQUIERDA Negro</li></ul>;<li>Marca: Citroen </li><li>Modelo: C3 </li> <li>Fecha: (2002 - 2009 ) </li>  <li>Espejo retrovisor  Mecánico Convexo de mano IZQUIERDA Negro</li></ul>;Marca: Citroen, Modelo: C3,Espejo retrovisor  Mecánico, Convexo, de mano IZQUIERDA, Negro;;Marca: Citroen Modelo: C3Espejo retrovisor  Mecánico Convexo de mano IZQUIERDA Negro;Marca: Citroen Modelo: C3Espejo retrovisor  Mecánico Convexo de mano IZQUIERDA Negro;;;;1;;;1;http://www.2automocion.com/fotos/918026.jpg;;;;;1;1;1;;;1;;;2002;2009;;1;2;1;2;Negro
;1;918107;21,259;24,21;;;1;;;;;918107;;;;;;;;;;1;0;;;;;;<li>Marca: Citroen </li><li>Modelo: C3 </li> <li>Fecha: (2002 - 2009 ) </li>  <li>Espejo retrovisor  Mecánico Convexo de mano DERECHA Imprimado</li></ul>;<li>Marca: Citroen </li><li>Modelo: C3 </li> <li>Fecha: (2002 - 2009 ) </li>  <li>Espejo retrovisor  Mecánico Convexo de mano DERECHA Imprimado</li></ul>;Marca: Citroen, Modelo: C3,Espejo retrovisor  Mecánico, Convexo, de mano DERECHA, Imprimado;;Marca: Citroen Modelo: C3Espejo retrovisor  Mecánico Convexo de mano DERECHA Imprimado;Marca: Citroen Modelo: C3Espejo retrovisor  Mecánico Convexo de mano DERECHA Imprimado;;;;1;;;1;http://www.2automocion.com/fotos/918107.jpg;;;;;1;1;1;;;1;;;2002;2009;;1;2;1;1;Imprimado
;1;918108;21,259;24,21;;;1;;;;;918108;;;;;;;;;;1;0;;;;;;<li>Marca: Citroen </li><li>Modelo: C3 </li> <li>Fecha: (2002 - 2009 ) </li>  <li>Espejo retrovisor  Mecánico Convexo de mano IZQUIERDA Imprimado</li></ul>;<li>Marca: Citroen </li><li>Modelo: C3 </li> <li>Fecha: (2002 - 2009 ) </li>  <li>Espejo retrovisor  Mecánico Convexo de mano IZQUIERDA Imprimado</li></ul>;Marca: Citroen, Modelo: C3,Espejo retrovisor  Mecánico, Convexo, de mano IZQUIERDA, Imprimado;;Marca: Citroen Modelo: C3Espejo retrovisor  Mecánico Convexo de mano IZQUIERDA Imprimado;Marca: Citroen Modelo: C3Espejo retrovisor  Mecánico Convexo de mano IZQUIERDA Imprimado;;;;1;;;1;http://www.2automocion.com/fotos/918108.jpg;;;;;1;1;1;;;1;;;2002;2009;;1;2;1;2;Imprimado
;1;918027;21,259;26,87;;;1;;;;;918027;;;;;;;;;;1;5;;;;;;<li>Marca: Citroen </li><li>Modelo: C3 </li> <li>Fecha: (2002 - 2009 ) </li>  <li>Espejo retrovisor  Eléctrico Convexo de mano DERECHA Negro</li></ul>;<li>Marca: Citroen </li><li>Modelo: C3 </li> <li>Fecha: (2002 - 2009 ) </li>  <li>Espejo retrovisor  Eléctrico Convexo de mano DERECHA Negro</li></ul>;Marca: Citroen, Modelo: C3,Espejo retrovisor  Eléctrico, Convexo, de mano DERECHA, Negro;;Marca: Citroen Modelo: C3Espejo retrovisor  Eléctrico Convexo de mano DERECHA Negro;Marca: Citroen Modelo: C3Espejo retrovisor  Eléctrico Convexo de mano DERECHA Negro;;;;1;;;1;http://www.2automocion.com/fotos/918027.jpg;;;;;1;1;1;;;1;;;2002;2009;;1;1;1;1;Negro
;1;918028;21,259;26,87;;;1;;;;;918028;;;;;;;;;;1;10;;;;;;<li>Marca: Citroen </li><li>Modelo: C3 </li> <li>Fecha: (2002 - 2009 ) </li>  <li>Espejo retrovisor  Eléctrico Convexo de mano IZQUIERDA Negro</li></ul>;<li>Marca: Citroen </li><li>Modelo: C3 </li> <li>Fecha: (2002 - 2009 ) </li>  <li>Espejo retrovisor  Eléctrico Convexo de mano IZQUIERDA Negro</li></ul>;Marca: Citroen, Modelo: C3,Espejo retrovisor  Eléctrico, Convexo, de mano IZQUIERDA, Negro;;Marca: Citroen Modelo: C3Espejo retrovisor  Eléctrico Convexo de mano IZQUIERDA Negro;Marca: Citroen Modelo: C3Espejo retrovisor  Eléctrico Convexo de mano IZQUIERDA Negro;;;;1;;;1;http://www.2automocion.com/fotos/918028.jpg;;;;;1;1;1;;;1;;;2002;2009;;1;1;1;2;Negro
;1;918045;21,259;40;;;1;;;;;918045;;;;;;;;;;1;6;;;;;;<li>Marca: Citroen </li><li>Modelo: C3 </li> <li>Fecha: (2002 - 2009 ) </li>  <li>Espejo retrovisor  Eléctrico Convexo de mano IZQUIERDA Térmico Negro</li></ul>;<li>Marca: Citroen </li><li>Modelo: C3 </li> <li>Fecha: (2002 - 2009 ) </li>  <li>Espejo retrovisor  Eléctrico Convexo de mano IZQUIERDA Térmico Negro</li></ul>;Marca: Citroen, Modelo: C3,Espejo retrovisor  Eléctrico, Convexo, de mano IZQUIERDA, Térmico Negro;;Marca: Citroen Modelo: C3Espejo retrovisor  Eléctrico Convexo de mano IZQUIERDA Térmico Negro;Marca: Citroen Modelo: C3Espejo retrovisor  Eléctrico Convexo de mano IZQUIERDA Térmico Negro;;;;1;;;1;http://www.2automocion.com/fotos/918045.jpg;;;;;1;1;1;;;1;;;2002;2009;;1;1;1;2;Térmico Negro
;1;918084;21,259;27,96;;;1;;;;;918084;;;;;;;;;;1;4;;;;;;<li>Marca: Citroen </li><li>Modelo: C3 </li> <li>Fecha: (2002 - 2009 ) </li>  <li>Espejo retrovisor  Eléctrico Convexo de mano DERECHA Negro Sensor de Temperatura</li></ul>;<li>Marca: Citroen </li><li>Modelo: C3 </li> <li>Fecha: (2002 - 2009 ) </li>  <li>Espejo retrovisor  Eléctrico Convexo de mano DERECHA Negro Sensor de Temperatura</li></ul>;Marca: Citroen, Modelo: C3,Espejo retrovisor  Eléctrico, Convexo, de mano DERECHA, Negro Sensor de Temperatura;;Marca: Citroen Modelo: C3Espejo retrovisor  Eléctrico Convexo de mano DERECHA Negro Sensor de Temperatura;Marca: Citroen Modelo: C3Espejo retrovisor  Eléctrico Convexo de mano DERECHA Negro Sensor de Temperatura;;;;1;;;1;http://www.2automocion.com/fotos/918084.jpg;;;;;1;1;1;;;1;;;2002;2009;;1;1;1;1;Negro Sensor de Temperatura
;1;918120;21,259;38,75;;;1;;;;;918120;;;;;;;;;;1;1;;;;;;<li>Marca: Citroen </li><li>Modelo: C3 </li> <li>Fecha: (2002 - 2009 ) </li>  <li>Espejo retrovisor  Eléctrico Convexo de mano DERECHA Térmico Negro Sensor de Temperatura</li></ul>;<li>Marca: Citroen </li><li>Modelo: C3 </li> <li>Fecha: (2002 - 2009 ) </li>  <li>Espejo retrovisor  Eléctrico Convexo de mano DERECHA Térmico Negro Sensor de Temperatura</li></ul>;Marca: Citroen, Modelo: C3,Espejo retrovisor  Eléctrico, Convexo, de mano DERECHA, Térmico Negro Sensor de Temperatura;;Marca: Citroen Modelo: C3Espejo retrovisor  Eléctrico Convexo de mano DERECHA Térmico Negro Sensor de Temperatura;Marca: Citroen Modelo: C3Espejo retrovisor  Eléctrico Convexo de mano DERECHA Térmico Negro Sensor de Temperatura;;;;1;;;1;http://www.2automocion.com/fotos/918120.jpg;;;;;1;1;1;;;1;;;2002;2009;;1;1;1;1;Térmico Negro Sensor de Temperatura
;1;918085;21,259;36,09;;;1;;;;;918085;;;;;;;;;;1;4;;;;;;<li>Marca: Citroen </li><li>Modelo: C3 </li> <li>Fecha: (2002 - 2009 ) </li>  <li>Espejo retrovisor  Eléctrico Convexo de mano DERECHA Térmico Imprimado</li></ul>;<li>Marca: Citroen </li><li>Modelo: C3 </li> <li>Fecha: (2002 - 2009 ) </li>  <li>Espejo retrovisor  Eléctrico Convexo de mano DERECHA Térmico Imprimado</li></ul>;Marca: Citroen, Modelo: C3,Espejo retrovisor  Eléctrico, Convexo, de mano DERECHA, Térmico Imprimado;;Marca: Citroen Modelo: C3Espejo retrovisor  Eléctrico Convexo de mano DERECHA Térmico Imprimado;Marca: Citroen Modelo: C3Espejo retrovisor  Eléctrico Convexo de mano DERECHA Térmico Imprimado;;;;1;;;1;http://www.2automocion.com/fotos/918085.jpg;;;;;1;1;1;;;1;;;2002;2009;;1;1;1;1;Térmico Imprimado
;1;918086;21,259;43,43;;;1;;;;;918086;;;;;;;;;;1;6;;;;;;<li>Marca: Citroen </li><li>Modelo: C3 </li> <li>Fecha: (2002 - 2009 ) </li>  <li>Espejo retrovisor  Eléctrico Convexo de mano IZQUIERDA Térmico Imprimado</li></ul>;<li>Marca: Citroen </li><li>Modelo: C3 </li> <li>Fecha: (2002 - 2009 ) </li>  <li>Espejo retrovisor  Eléctrico Convexo de mano IZQUIERDA Térmico Imprimado</li></ul>;Marca: Citroen, Modelo: C3,Espejo retrovisor  Eléctrico, Convexo, de mano IZQUIERDA, Térmico Imprimado;;Marca: Citroen Modelo: C3Espejo retrovisor  Eléctrico Convexo de mano IZQUIERDA Térmico Imprimado;Marca: Citroen Modelo: C3Espejo retrovisor  Eléctrico Convexo de mano IZQUIERDA Térmico Imprimado;;;;1;;;1;http://www.2automocion.com/fotos/918086.jpg;;;;;1;1;1;;;1;;;2002;2009;;1;1;1;2;Térmico Imprimado
;1;918087;21,259;44,53;;;1;;;;;918087;;;;;;;;;;1;4;;;;;;<li>Marca: Citroen </li><li>Modelo: C3 </li> <li>Fecha: (2002 - 2009 ) </li>  <li>Espejo retrovisor  Eléctrico Convexo de mano DERECHA Térmico Imprimado Sensor de Temperatura</li></ul>;<li>Marca: Citroen </li><li>Modelo: C3 </li> <li>Fecha: (2002 - 2009 ) </li>  <li>Espejo retrovisor  Eléctrico Convexo de mano DERECHA Térmico Imprimado Sensor de Temperatura</li></ul>;Marca: Citroen, Modelo: C3,Espejo retrovisor  Eléctrico, Convexo, de mano DERECHA, Térmico Imprimado Sensor de Temperatura;;Marca: Citroen Modelo: C3Espejo retrovisor  Eléctrico Convexo de mano DERECHA Térmico Imprimado Sensor de Temperatura;Marca: Citroen Modelo: C3Espejo retrovisor  Eléctrico Convexo de mano DERECHA Térmico Imprimado Sensor de Temperatura;;;;1;;;1;http://www.2automocion.com/fotos/918087.jpg;;;;;1;1;1;;;1;;;2002;2009;;1;1;1;1;Térmico Imprimado Sensor de Temperatura
;1;670088;21,259;4,37;;;1;;;;;670088;;;;;;;;;;1;23;;;;;;<li>CRISTAL  Convexo de mano DERECHA Negro</li></ul>;<li>CRISTAL  Convexo de mano DERECHA Negro</li></ul>;Marca: Citroen, Modelo: C3,Espejo retrovisor CRISTAL, , Convexo, de mano DERECHA, Negro;;Marca: Citroen Modelo: C3Espejo retrovisor CRISTAL  Convexo de mano DERECHA Negro;Marca: Citroen Modelo: C3Espejo retrovisor CRISTAL  Convexo de mano DERECHA Negro;;;;1;;;1;http://www.2automocion.com/fotos/670088.jpg;;;;;1;1;1;;;1;;;2002;2009;;2;;1;1;Negro
;1;670087;21,259;4,37;;;1;;;;;670087;;;;;;;;;;1;32;;;;;;<li>CRISTAL  Convexo de mano IZQUIERDA Negro</li></ul>;<li>CRISTAL  Convexo de mano IZQUIERDA Negro</li></ul>;Marca: Citroen, Modelo: C3,Espejo retrovisor CRISTAL, , Convexo, de mano IZQUIERDA, Negro;;Marca: Citroen Modelo: C3Espejo retrovisor CRISTAL  Convexo de mano IZQUIERDA Negro;Marca: Citroen Modelo: C3Espejo retrovisor CRISTAL  Convexo de mano IZQUIERDA Negro;;;;1;;;1;http://www.2automocion.com/fotos/670087.jpg;;;;;1;1;1;;;1;;;2002;2009;;2;;1;2;Negro
;1;670086;21,259;5,31;;;1;;;;;670086;;;;;;;;;;1;36;;;;;;<li>CRISTAL  Asférico de mano IZQUIERDA Negro</li></ul>;<li>CRISTAL  Asférico de mano IZQUIERDA Negro</li></ul>;Marca: Citroen, Modelo: C3,Espejo retrovisor CRISTAL, , Asférico, de mano IZQUIERDA, Negro;;Marca: Citroen Modelo: C3Espejo retrovisor CRISTAL  Asférico de mano IZQUIERDA Negro;Marca: Citroen Modelo: C3Espejo retrovisor CRISTAL  Asférico de mano IZQUIERDA Negro;;;;1;;;1;http://www.2automocion.com/fotos/670086.jpg;;;;;1;1;1;;;1;;;2002;2009;;2;;3;2;Negro
;1;670102;21,259;6,09;;;1;;;;;670102;;;;;;;;;;1;17;;;;;;<li>CRISTAL  Convexo de mano DERECHA Térmico Negro</li></ul>;<li>CRISTAL  Convexo de mano DERECHA Térmico Negro</li></ul>;Marca: Citroen, Modelo: C3,Espejo retrovisor CRISTAL, , Convexo, de mano DERECHA, Térmico Negro;;Marca: Citroen Modelo: C3Espejo retrovisor CRISTAL  Convexo de mano DERECHA Térmico Negro;Marca: Citroen Modelo: C3Espejo retrovisor CRISTAL  Convexo de mano DERECHA Térmico Negro;;;;1;;;1;http://www.2automocion.com/fotos/670102.jpg;;;;;1;1;1;;;1;;;2002;2009;;2;;1;1;Térmico Negro
;1;670103;21,259;6,09;;;1;;;;;670103;;;;;;;;;;1;16;;;;;;<li>CRISTAL  Convexo de mano IZQUIERDA Térmico Negro</li></ul>;<li>CRISTAL  Convexo de mano IZQUIERDA Térmico Negro</li></ul>;Marca: Citroen, Modelo: C3,Espejo retrovisor CRISTAL, , Convexo, de mano IZQUIERDA, Térmico Negro;;Marca: Citroen Modelo: C3Espejo retrovisor CRISTAL  Convexo de mano IZQUIERDA Térmico Negro;Marca: Citroen Modelo: C3Espejo retrovisor CRISTAL  Convexo de mano IZQUIERDA Térmico Negro;;;;1;;;1;http://www.2automocion.com/fotos/670103.jpg;;;;;1;1;1;;;1;;;2002;2009;;2;;1;2;Térmico Negro
;1;918109;21,259;68,43;;;1;;;;;918109;;;;;;;;;;1;8;;;;;;<li>Marca: Citroen </li><li>Modelo: C3 </li><li>Versión: PICASSO </li> <li>Fecha: (2009 - 2014 ) </li>  <li>Espejo retrovisor  Eléctrico Convexo de mano DERECHA Negro Sensor de Temperatura</li></ul>;<li>Marca: Citroen </li><li>Modelo: C3 </li><li>Versión: PICASSO </li> <li>Fecha: (2009 - 2014 ) </li>  <li>Espejo retrovisor  Eléctrico Convexo de mano DERECHA Negro Sensor de Temperatura</li></ul>;Marca: Citroen, Modelo: C3,Espejo retrovisor  Eléctrico, Convexo, de mano DERECHA, Negro Sensor de Temperatura;;Marca: Citroen Modelo: C3Espejo retrovisor  Eléctrico Convexo de mano DERECHA Negro Sensor de Temperatura;Marca: Citroen Modelo: C3Espejo retrovisor  Eléctrico Convexo de mano DERECHA Negro Sensor de Temperatura;;;;1;;;1;http://www.2automocion.com/fotos/918109.jpg;;;;;1;1;1;;;1;;PICASSO;2009;2014;;1;1;1;1;Negro Sensor de Temperatura
;1;918110;21,259;68,43;;;1;;;;;918110;;;;;;;;;;1;8;;;;;;<li>Marca: Citroen </li><li>Modelo: C3 </li><li>Versión: PICASSO </li> <li>Fecha: (2009 - 2014 ) </li>  <li>Espejo retrovisor  Eléctrico Convexo de mano IZQUIERDA Negro</li></ul>;<li>Marca: Citroen </li><li>Modelo: C3 </li><li>Versión: PICASSO </li> <li>Fecha: (2009 - 2014 ) </li>  <li>Espejo retrovisor  Eléctrico Convexo de mano IZQUIERDA Negro</li></ul>;Marca: Citroen, Modelo: C3,Espejo retrovisor  Eléctrico, Convexo, de mano IZQUIERDA, Negro;;Marca: Citroen Modelo: C3Espejo retrovisor  Eléctrico Convexo de mano IZQUIERDA Negro;Marca: Citroen Modelo: C3Espejo retrovisor  Eléctrico Convexo de mano IZQUIERDA Negro;;;;1;;;1;http://www.2automocion.com/fotos/918110.jpg;;;;;1;1;1;;;1;;PICASSO;2009;2014;;1;1;1;2;Negro
;1;918111;21,259;72,65;;;1;;;;;918111;;;;;;;;;;1;0;;;;;;<li>Marca: Citroen </li><li>Modelo: C3 </li><li>Versión: PICASSO </li> <li>Fecha: (2009 - 2014 ) </li>  <li>Espejo retrovisor  Eléctrico Convexo de mano DERECHA Imprimado Sensor de Temperatura</li></ul>;<li>Marca: Citroen </li><li>Modelo: C3 </li><li>Versión: PICASSO </li> <li>Fecha: (2009 - 2014 ) </li>  <li>Espejo retrovisor  Eléctrico Convexo de mano DERECHA Imprimado Sensor de Temperatura</li></ul>;Marca: Citroen, Modelo: C3,Espejo retrovisor  Eléctrico, Convexo, de mano DERECHA, Imprimado Sensor de Temperatura;;Marca: Citroen Modelo: C3Espejo retrovisor  Eléctrico Convexo de mano DERECHA Imprimado Sensor de Temperatura;Marca: Citroen Modelo: C3Espejo retrovisor  Eléctrico Convexo de mano DERECHA Imprimado Sensor de Temperatura;;;;1;;;1;http://www.2automocion.com/fotos/918111.jpg;;;;;1;1;1;;;1;;PICASSO;2009;2014;;1;1;1;1;Imprimado Sensor de Temperatura
;1;918112;21,259;71,4;;;1;;;;;918112;;;;;;;;;;1;0;;;;;;<li>Marca: Citroen </li><li>Modelo: C3 </li><li>Versión: PICASSO </li> <li>Fecha: (2009 - 2014 ) </li>  <li>Espejo retrovisor  Eléctrico Convexo de mano IZQUIERDA Imprimado</li></ul>;<li>Marca: Citroen </li><li>Modelo: C3 </li><li>Versión: PICASSO </li> <li>Fecha: (2009 - 2014 ) </li>  <li>Espejo retrovisor  Eléctrico Convexo de mano IZQUIERDA Imprimado</li></ul>;Marca: Citroen, Modelo: C3,Espejo retrovisor  Eléctrico, Convexo, de mano IZQUIERDA, Imprimado;;Marca: Citroen Modelo: C3Espejo retrovisor  Eléctrico Convexo de mano IZQUIERDA Imprimado;Marca: Citroen Modelo: C3Espejo retrovisor  Eléctrico Convexo de mano IZQUIERDA Imprimado;;;;1;;;1;http://www.2automocion.com/fotos/918112.jpg;;;;;1;1;1;;;1;;PICASSO;2009;2014;;1;1;1;2;Imprimado
;1;918113;21,259;139,3;;;1;;;;;918113;;;;;;;;;;1;2;;;;;;<li>Marca: Citroen </li><li>Modelo: C3 </li><li>Versión: PICASSO </li> <li>Fecha: (2009 - 2014 ) </li>  <li>Espejo retrovisor  Eléctrico Convexo de mano DERECHA Térmico Imprimado Sensor de Temperatura Abatible Electrónicamente    Luz de Cortesía</li></ul>;<li>Marca: Citroen </li><li>Modelo: C3 </li><li>Versión: PICASSO </li> <li>Fecha: (2009 - 2014 ) </li>  <li>Espejo retrovisor  Eléctrico Convexo de mano DERECHA Térmico Imprimado Sensor de Temperatura Abatible Electrónicamente    Luz de Cortesía</li></ul>;Marca: Citroen, Modelo: C3,Espejo retrovisor  Eléctrico, Convexo, de mano DERECHA, Térmico Imprimado Sensor de Temperatura Abatible Electrónicamente    Luz de Cortesía;;Marca: Citroen Modelo: C3Espejo retrovisor  Eléctrico Convexo de mano DERECHA Térmico Imprimado Sensor de Temperatura Abatible Electrónicamente    Luz de Cortesía;Marca: Citroen Modelo: C3Espejo retrovisor  Eléctrico Convexo de mano DERECHA Térmico Imprimado Sensor de Temperatura Abatible Electrónicamente    Luz de Cortesía;;;;1;;;1;http://www.2automocion.com/fotos/918113.jpg;;;;;1;1;1;;;1;;PICASSO;2009;2014;;1;1;1;1;Térmico Imprimado Sensor de Temperatura Abatible Electrónicamente    Luz de Cortesía
;1;918114;21,259;139,3;;;1;;;;;918114;;;;;;;;;;1;0;;;;;;<li>Marca: Citroen </li><li>Modelo: C3 </li><li>Versión: PICASSO </li> <li>Fecha: (2009 - 2014 ) </li>  <li>Espejo retrovisor  Eléctrico Convexo de mano IZQUIERDA Térmico Imprimado  Abatible Electrónicamente    Luz de Cortesía</li></ul>;<li>Marca: Citroen </li><li>Modelo: C3 </li><li>Versión: PICASSO </li> <li>Fecha: (2009 - 2014 ) </li>  <li>Espejo retrovisor  Eléctrico Convexo de mano IZQUIERDA Térmico Imprimado  Abatible Electrónicamente    Luz de Cortesía</li></ul>;Marca: Citroen, Modelo: C3,Espejo retrovisor  Eléctrico, Convexo, de mano IZQUIERDA, Térmico Imprimado  Abatible Electrónicamente    Luz de Cortesía;;Marca: Citroen Modelo: C3Espejo retrovisor  Eléctrico Convexo de mano IZQUIERDA Térmico Imprimado  Abatible Electrónicamente    Luz de Cortesía;Marca: Citroen Modelo: C3Espejo retrovisor  Eléctrico Convexo de mano IZQUIERDA Térmico Imprimado  Abatible Electrónicamente    Luz de Cortesía;;;;1;;;1;http://www.2automocion.com/fotos/918114.jpg;;;;;1;1;1;;;1;;PICASSO;2009;2014;;1;1;1;2;Térmico Imprimado  Abatible Electrónicamente    Luz de Cortesía
;1;670438;21,259;20,93;;;1;;;;;670438;;;;;;;;;;1;20;;;;;;<li>CRISTAL  Convexo de mano DERECHA Térmico Negro</li></ul>;<li>CRISTAL  Convexo de mano DERECHA Térmico Negro</li></ul>;Marca: Citroen, Modelo: C3,Espejo retrovisor CRISTAL, , Convexo, de mano DERECHA, Térmico Negro;;Marca: Citroen Modelo: C3Espejo retrovisor CRISTAL  Convexo de mano DERECHA Térmico Negro;Marca: Citroen Modelo: C3Espejo retrovisor CRISTAL  Convexo de mano DERECHA Térmico Negro;;;;1;;;1;http://www.2automocion.com/fotos/670438.jpg;;;;;1;1;1;;;1;;PICASSO;2009;2014;;2;;1;1;Térmico Negro
;1;670439;21,259;20,93;;;1;;;;;670439;;;;;;;;;;1;33;;;;;;<li>CRISTAL  Convexo de mano IZQUIERDA Térmico Negro</li></ul>;<li>CRISTAL  Convexo de mano IZQUIERDA Térmico Negro</li></ul>;Marca: Citroen, Modelo: C3,Espejo retrovisor CRISTAL, , Convexo, de mano IZQUIERDA, Térmico Negro;;Marca: Citroen Modelo: C3Espejo retrovisor CRISTAL  Convexo de mano IZQUIERDA Térmico Negro;Marca: Citroen Modelo: C3Espejo retrovisor CRISTAL  Convexo de mano IZQUIERDA Térmico Negro;;;;1;;;1;http://www.2automocion.com/fotos/670439.jpg;;;;;1;1;1;;;1;;PICASSO;2009;2014;;2;;1;2;Térmico Negro
;1;670428;21,259;24,21;;;1;;;;;670428;;;;;;;;;;1;5;;;;;;<li>CRISTAL  Convexo Azul de mano DERECHA Térmico Negro</li></ul>;<li>CRISTAL  Convexo Azul de mano DERECHA Térmico Negro</li></ul>;Marca: Citroen, Modelo: C3,Espejo retrovisor CRISTAL, , Convexo Azul, de mano DERECHA, Térmico Negro;;Marca: Citroen Modelo: C3Espejo retrovisor CRISTAL  Convexo Azul de mano DERECHA Térmico Negro;Marca: Citroen Modelo: C3Espejo retrovisor CRISTAL  Convexo Azul de mano DERECHA Térmico Negro;;;;1;;;1;http://www.2automocion.com/fotos/670428.jpg;;;;;1;1;1;;;1;;PICASSO;2009;2014;;2;;;1;Térmico Negro
;1;670429;21,259;24,21;;;1;;;;;670429;;;;;;;;;;1;5;;;;;;<li>CRISTAL  Convexo Azul de mano IZQUIERDA Térmico Negro</li></ul>;<li>CRISTAL  Convexo Azul de mano IZQUIERDA Térmico Negro</li></ul>;Marca: Citroen, Modelo: C3,Espejo retrovisor CRISTAL, , Convexo Azul, de mano IZQUIERDA, Térmico Negro;;Marca: Citroen Modelo: C3Espejo retrovisor CRISTAL  Convexo Azul de mano IZQUIERDA Térmico Negro;Marca: Citroen Modelo: C3Espejo retrovisor CRISTAL  Convexo Azul de mano IZQUIERDA Térmico Negro;;;;1;;;1;http://www.2automocion.com/fotos/670429.jpg;;;;;1;1;1;;;1;;PICASSO;2009;2014;;2;;;2;Térmico Negro
;1;618088;21,259;12,65;;;1;;;;;618088;;;;;;;;;;1;2;;;;;;<li>CARCASA   de mano DERECHA Negro</li></ul>;<li>CARCASA   de mano DERECHA Negro</li></ul>;Marca: Citroen, Modelo: C3,Espejo retrovisor CARCASA, , , de mano DERECHA, Negro;;Marca: Citroen Modelo: C3Espejo retrovisor CARCASA   de mano DERECHA Negro;Marca: Citroen Modelo: C3Espejo retrovisor CARCASA   de mano DERECHA Negro;;;;1;;;1;http://www.2automocion.com/fotos/618088.jpg;;;;;1;1;1;;;1;;PICASSO;2009;2014;;3;;;1;Negro
;1;618089;21,259;12,65;;;1;;;;;618089;;;;;;;;;;1;3;;;;;;<li>CARCASA   de mano IZQUIERDA Negro</li></ul>;<li>CARCASA   de mano IZQUIERDA Negro</li></ul>;Marca: Citroen, Modelo: C3,Espejo retrovisor CARCASA, , , de mano IZQUIERDA, Negro;;Marca: Citroen Modelo: C3Espejo retrovisor CARCASA   de mano IZQUIERDA Negro;Marca: Citroen Modelo: C3Espejo retrovisor CARCASA   de mano IZQUIERDA Negro;;;;1;;;1;http://www.2automocion.com/fotos/618089.jpg;;;;;1;1;1;;;1;;PICASSO;2009;2014;;3;;;2;Negro
;1;618096;21,259;12,65;;;1;;;;;618096;;;;;;;;;;1;7;;;;;;<li>CARCASA   de mano DERECHA Imprimado</li></ul>;<li>CARCASA   de mano DERECHA Imprimado</li></ul>;Marca: Citroen, Modelo: C3,Espejo retrovisor CARCASA, , , de mano DERECHA, Imprimado;;Marca: Citroen Modelo: C3Espejo retrovisor CARCASA   de mano DERECHA Imprimado;Marca: Citroen Modelo: C3Espejo retrovisor CARCASA   de mano DERECHA Imprimado;;;;1;;;1;http://www.2automocion.com/fotos/618096.jpg;;;;;1;1;1;;;1;;PICASSO;2009;2014;;3;;;1;Imprimado
;1;618097;21,259;12,65;;;1;;;;;618097;;;;;;;;;;1;7;;;;;;<li>CARCASA   de mano IZQUIERDA Imprimado</li></ul>;<li>CARCASA   de mano IZQUIERDA Imprimado</li></ul>;Marca: Citroen, Modelo: C3,Espejo retrovisor CARCASA, , , de mano IZQUIERDA, Imprimado;;Marca: Citroen Modelo: C3Espejo retrovisor CARCASA   de mano IZQUIERDA Imprimado;Marca: Citroen Modelo: C3Espejo retrovisor CARCASA   de mano IZQUIERDA Imprimado;;;;1;;;1;http://www.2automocion.com/fotos/618097.jpg;;;;;1;1;1;;;1;;PICASSO;2009;2014;;3;;;2;Imprimado
;1;918092;21,256;81,4;;;1;;;;;918092;;;;;;;;;;1;5;;;;;;<li>Marca: Citroen </li><li>Modelo: C4 </li> <li>Fecha: (2005 - 2010 ) </li>  <li>Espejo retrovisor  Eléctrico Convexo Azul de mano DERECHA Térmico Imprimado Sensor de Temperatura</li></ul>;<li>Marca: Citroen </li><li>Modelo: C4 </li> <li>Fecha: (2005 - 2010 ) </li>  <li>Espejo retrovisor  Eléctrico Convexo Azul de mano DERECHA Térmico Imprimado Sensor de Temperatura</li></ul>;Marca: Citroen, Modelo: C4,Espejo retrovisor  Eléctrico, Convexo Azul, de mano DERECHA, Térmico Imprimado Sensor de Temperatura;;Marca: Citroen Modelo: C4Espejo retrovisor  Eléctrico Convexo Azul de mano DERECHA Térmico Imprimado Sensor de Temperatura;Marca: Citroen Modelo: C4Espejo retrovisor  Eléctrico Convexo Azul de mano DERECHA Térmico Imprimado Sensor de Temperatura;;;;1;;;1;http://www.2automocion.com/fotos/918092.jpg;;;;;1;1;1;;;1;;;2005;2010;;1;1;;1;Térmico Imprimado Sensor de Temperatura
;1;918093;21,256;92,81;;;1;;;;;918093;;;;;;;;;;1;5;;;;;;<li>Marca: Citroen </li><li>Modelo: C4 </li> <li>Fecha: (2005 - 2010 ) </li>  <li>Espejo retrovisor  Eléctrico Asférico Azul de mano IZQUIERDA Térmico Imprimado</li></ul>;<li>Marca: Citroen </li><li>Modelo: C4 </li> <li>Fecha: (2005 - 2010 ) </li>  <li>Espejo retrovisor  Eléctrico Asférico Azul de mano IZQUIERDA Térmico Imprimado</li></ul>;Marca: Citroen, Modelo: C4,Espejo retrovisor  Eléctrico, Asférico Azul, de mano IZQUIERDA, Térmico Imprimado;;Marca: Citroen Modelo: C4Espejo retrovisor  Eléctrico Asférico Azul de mano IZQUIERDA Térmico Imprimado;Marca: Citroen Modelo: C4Espejo retrovisor  Eléctrico Asférico Azul de mano IZQUIERDA Térmico Imprimado;;;;1;;;1;http://www.2automocion.com/fotos/918093.jpg;;;;;1;1;1;;;1;;;2005;2010;;1;1;;2;Térmico Imprimado
;1;918090;21,256;92,81;;;1;;;;;918090;;;;;;;;;;1;2;;;;;;<li>Marca: Citroen </li><li>Modelo: C4 </li> <li>Fecha: (2005 - 2010 ) </li>  <li>Espejo retrovisor  Eléctrico Convexo Azul de mano IZQUIERDA Térmico Imprimado</li></ul>;<li>Marca: Citroen </li><li>Modelo: C4 </li> <li>Fecha: (2005 - 2010 ) </li>  <li>Espejo retrovisor  Eléctrico Convexo Azul de mano IZQUIERDA Térmico Imprimado</li></ul>;Marca: Citroen, Modelo: C4,Espejo retrovisor  Eléctrico, Convexo Azul, de mano IZQUIERDA, Térmico Imprimado;;Marca: Citroen Modelo: C4Espejo retrovisor  Eléctrico Convexo Azul de mano IZQUIERDA Térmico Imprimado;Marca: Citroen Modelo: C4Espejo retrovisor  Eléctrico Convexo Azul de mano IZQUIERDA Térmico Imprimado;;;;1;;;1;http://www.2automocion.com/fotos/918090.jpg;;;;;1;1;1;;;1;;;2005;2010;;1;1;;2;Térmico Imprimado
;1;918121;21,256;67,96;;;1;;;;;918121;;;;;;;;;;1;6;;;;;;<li>Marca: Citroen </li><li>Modelo: C4 </li> <li>Fecha: (2005 - 2010 ) </li>  <li>Espejo retrovisor  Eléctrico Convexo de mano IZQUIERDA Térmico Imprimado</li></ul>;<li>Marca: Citroen </li><li>Modelo: C4 </li> <li>Fecha: (2005 - 2010 ) </li>  <li>Espejo retrovisor  Eléctrico Convexo de mano IZQUIERDA Térmico Imprimado</li></ul>;Marca: Citroen, Modelo: C4,Espejo retrovisor  Eléctrico, Convexo, de mano IZQUIERDA, Térmico Imprimado;;Marca: Citroen Modelo: C4Espejo retrovisor  Eléctrico Convexo de mano IZQUIERDA Térmico Imprimado;Marca: Citroen Modelo: C4Espejo retrovisor  Eléctrico Convexo de mano IZQUIERDA Térmico Imprimado;;;;1;;;1;http://www.2automocion.com/fotos/918121.jpg;;;;;1;1;1;;;1;;;2005;2010;;1;1;1;2;Térmico Imprimado
;1;918094;21,256;123,7;;;1;;;;;918094;;;;;;;;;;1;2;;;;;;<li>Marca: Citroen </li><li>Modelo: C4 </li> <li>Fecha: (2005 - 2010 ) </li>  <li>Espejo retrovisor  Eléctrico Convexo Azul de mano DERECHA Térmico Imprimado Sensor de Temperatura Abatible Electrónicamente</li></ul>;<li>Marca: Citroen </li><li>Modelo: C4 </li> <li>Fecha: (2005 - 2010 ) </li>  <li>Espejo retrovisor  Eléctrico Convexo Azul de mano DERECHA Térmico Imprimado Sensor de Temperatura Abatible Electrónicamente</li></ul>;Marca: Citroen, Modelo: C4,Espejo retrovisor  Eléctrico, Convexo Azul, de mano DERECHA, Térmico Imprimado Sensor de Temperatura Abatible Electrónicamente;;Marca: Citroen Modelo: C4Espejo retrovisor  Eléctrico Convexo Azul de mano DERECHA Térmico Imprimado Sensor de Temperatura Abatible Electrónicamente;Marca: Citroen Modelo: C4Espejo retrovisor  Eléctrico Convexo Azul de mano DERECHA Térmico Imprimado Sensor de Temperatura Abatible Electrónicamente;;;;1;;;1;http://www.2automocion.com/fotos/918094.jpg;;;;;1;1;1;;;1;;;2005;2010;;1;1;;1;Térmico Imprimado Sensor de Temperatura Abatible Electrónicamente
;1;918095;21,256;121;;;1;;;;;918095;;;;;;;;;;1;2;;;;;;<li>Marca: Citroen </li><li>Modelo: C4 </li> <li>Fecha: (2005 - 2010 ) </li>  <li>Espejo retrovisor  Eléctrico Asférico Azul de mano IZQUIERDA Térmico Imprimado  Abatible Electrónicamente</li></ul>;<li>Marca: Citroen </li><li>Modelo: C4 </li> <li>Fecha: (2005 - 2010 ) </li>  <li>Espejo retrovisor  Eléctrico Asférico Azul de mano IZQUIERDA Térmico Imprimado  Abatible Electrónicamente</li></ul>;Marca: Citroen, Modelo: C4,Espejo retrovisor  Eléctrico, Asférico Azul, de mano IZQUIERDA, Térmico Imprimado  Abatible Electrónicamente;;Marca: Citroen Modelo: C4Espejo retrovisor  Eléctrico Asférico Azul de mano IZQUIERDA Térmico Imprimado  Abatible Electrónicamente;Marca: Citroen Modelo: C4Espejo retrovisor  Eléctrico Asférico Azul de mano IZQUIERDA Térmico Imprimado  Abatible Electrónicamente;;;;1;;;1;http://www.2automocion.com/fotos/918095.jpg;;;;;1;1;1;;;1;;;2005;2010;;1;1;;2;Térmico Imprimado  Abatible Electrónicamente
;1;918096;21,256;121;;;1;;;;;918096;;;;;;;;;;1;5;;;;;;<li>Marca: Citroen </li><li>Modelo: C4 </li> <li>Fecha: (2005 - 2010 ) </li>  <li>Espejo retrovisor  Eléctrico Convexo Azul de mano IZQUIERDA Térmico Imprimado  Abatible Electrónicamente</li></ul>;<li>Marca: Citroen </li><li>Modelo: C4 </li> <li>Fecha: (2005 - 2010 ) </li>  <li>Espejo retrovisor  Eléctrico Convexo Azul de mano IZQUIERDA Térmico Imprimado  Abatible Electrónicamente</li></ul>;Marca: Citroen, Modelo: C4,Espejo retrovisor  Eléctrico, Convexo Azul, de mano IZQUIERDA, Térmico Imprimado  Abatible Electrónicamente;;Marca: Citroen Modelo: C4Espejo retrovisor  Eléctrico Convexo Azul de mano IZQUIERDA Térmico Imprimado  Abatible Electrónicamente;Marca: Citroen Modelo: C4Espejo retrovisor  Eléctrico Convexo Azul de mano IZQUIERDA Térmico Imprimado  Abatible Electrónicamente;;;;1;;;1;http://www.2automocion.com/fotos/918096.jpg;;;;;1;1;1;;;1;;;2005;2010;;1;1;;2;Térmico Imprimado  Abatible Electrónicamente
;1;670028;21,256;20;;;1;;;;;670028;;;;;;;;;;1;8;;;;;;<li>CRISTAL  Convexo Azul de mano DERECHA Térmico Negro</li></ul>;<li>CRISTAL  Convexo Azul de mano DERECHA Térmico Negro</li></ul>;Marca: Citroen, Modelo: C4,Espejo retrovisor CRISTAL, , Convexo Azul, de mano DERECHA, Térmico Negro;;Marca: Citroen Modelo: C4Espejo retrovisor CRISTAL  Convexo Azul de mano DERECHA Térmico Negro;Marca: Citroen Modelo: C4Espejo retrovisor CRISTAL  Convexo Azul de mano DERECHA Térmico Negro;;;;1;;;1;http://www.2automocion.com/fotos/670028.jpg;;;;;1;1;1;;;1;;;2005;2010;;2;;;1;Térmico Negro
;1;670027;21,256;20;;;1;;;;;670027;;;;;;;;;;1;17;;;;;;<li>CRISTAL  Convexo Azul de mano IZQUIERDA Térmico Negro</li></ul>;<li>CRISTAL  Convexo Azul de mano IZQUIERDA Térmico Negro</li></ul>;Marca: Citroen, Modelo: C4,Espejo retrovisor CRISTAL, , Convexo Azul, de mano IZQUIERDA, Térmico Negro;;Marca: Citroen Modelo: C4Espejo retrovisor CRISTAL  Convexo Azul de mano IZQUIERDA Térmico Negro;Marca: Citroen Modelo: C4Espejo retrovisor CRISTAL  Convexo Azul de mano IZQUIERDA Térmico Negro;;;;1;;;1;http://www.2automocion.com/fotos/670027.jpg;;;;;1;1;1;;;1;;;2005;2010;;2;;;2;Térmico Negro
;1;670229;21,256;21,09;;;1;;;;;670229;;;;;;;;;;1;12;;;;;;<li>CRISTAL  Asférico Azul de mano IZQUIERDA Térmico Negro</li></ul>;<li>CRISTAL  Asférico Azul de mano IZQUIERDA Térmico Negro</li></ul>;Marca: Citroen, Modelo: C4,Espejo retrovisor CRISTAL, , Asférico Azul, de mano IZQUIERDA, Térmico Negro;;Marca: Citroen Modelo: C4Espejo retrovisor CRISTAL  Asférico Azul de mano IZQUIERDA Térmico Negro;Marca: Citroen Modelo: C4Espejo retrovisor CRISTAL  Asférico Azul de mano IZQUIERDA Térmico Negro;;;;1;;;1;http://www.2automocion.com/fotos/670229.jpg;;;;;1;1;1;;;1;;;2005;2010;;2;;;2;Térmico Negro
;1;618090;21,256;12,96;;;1;;;;;618090;;;;;;;;;;1;11;;;;;;<li>CARCASA   de mano DERECHA Imprimado</li></ul>;<li>CARCASA   de mano DERECHA Imprimado</li></ul>;Marca: Citroen, Modelo: C4,Espejo retrovisor CARCASA, , , de mano DERECHA, Imprimado;;Marca: Citroen Modelo: C4Espejo retrovisor CARCASA   de mano DERECHA Imprimado;Marca: Citroen Modelo: C4Espejo retrovisor CARCASA   de mano DERECHA Imprimado;;;;1;;;1;http://www.2automocion.com/fotos/618090.jpg;;;;;1;1;1;;;1;;;2005;2010;;3;;;1;Imprimado
;1;618091;21,256;12,96;;;1;;;;;618091;;;;;;;;;;1;11;;;;;;<li>CARCASA   de mano IZQUIERDA Imprimado</li></ul>;<li>CARCASA   de mano IZQUIERDA Imprimado</li></ul>;Marca: Citroen, Modelo: C4,Espejo retrovisor CARCASA, , , de mano IZQUIERDA, Imprimado;;Marca: Citroen Modelo: C4Espejo retrovisor CARCASA   de mano IZQUIERDA Imprimado;Marca: Citroen Modelo: C4Espejo retrovisor CARCASA   de mano IZQUIERDA Imprimado;;;;1;;;1;http://www.2automocion.com/fotos/618091.jpg;;;;;1;1;1;;;1;;;2005;2010;;3;;;2;Imprimado
