﻿"Id(no rellenar);Activo (0=No/1=No);Nombre;Categorias (x	y	""z...);Precio con Iva Incluido (PVP);Regla Impuestos (IVA) (1=21% 2=10% 3=4%);Precio mayorista;En venta 0=noO 1=si (0/1);Importe descuento;Descuento porcentual;Discount desde (yyyy-mm-dd);Discount hasta (yyyy-mm-dd);Referencia comercio;referencia proveedor;Proveedor;Fabricante;EAN13(código de barras);UPC;Ecotasa;ancho;alto;profundidad;Weight;Cantidad;Cantidad mínima;Visibilidad;Coste adicional envio;Unidad;ratio precio unitario;Descripción corta;Descripción larga;Tags (x""	y	""z...);meta_title;meta_keywords;meta_description;Enlace reescrito;Text cuando está en stock;Text when backorder allowed;Disponible para pedido (0 = No""	"" 1 = Yes);Fecha disponibilidad de producto;Fecha creación producto;Mostrar precio (0 = No""	"" 1 = Yes);Imagen URLs (x""	y	""z...);Borra imágenes existentes (0 = No""	"" 1 = Yes);Feature(Name:Value:Position);Disponible sólo online (0 = No""	"" 1 = Yes);Condición;Personalizabke (0 = No""	"" 1 = Yes);Uploadable files (0 = No""	"" 1 = Yes);Text fields (0 = No""	"" 1 = Yes);Out_of_stock;Advanced stock management;ID / Nombre de tiienda;carroceria;version;fecha_inicio;fecha_fin;puertas;despiece;regulacion;cristal;mano;caracteristicas"";;;;;;;;;;;;;;;;;;;;;;;;;;;;;;;;;;;;;;;;;;;;;;;;;;;;;;;;;;;;;;;;;;;;;;;;;;;;;;;;;;;;;;;;;;;;;;;;;;;;;;;;;;;;;;;;;;;;;;;;;;;;;;;;;;;;;;;;;;;;;;;;;;;;;;;;;;;;;;;;;;;;;;;;;;;;;;;;;;;;;;;;;;;;;;;;;;;;;;;;;;;;;;;;;;;;;;;;;;;;;;;;;;;;;;;;;;;;;;;;;;;;;;;;;;;;;;;;;;;;;;;;;;;;;;;;;;;;;;;;;;;;;;;;;;;;;;;;;;;;;;;;;;;;;;;;;;;;;;;;;;;;;;;;;;;;;;;;;;;;;;;;;;;;;;;;;;;;;;;;																																																														;;;;;;;;;;;;;;;;;;;;;;;;;;;;;;;;;;;;;;;;;;;;;;;;;;;;;;;;;;;;;;;;;;;;;;;;;;;;;;;;;;;;;;;;;;;;;;;;;;;;;;;;;;;;;;;;;;;;;;;;;;;;;;;;;;;;;;;;;;;;;;;;;;;;;;;;;;;;;;;;;;;;;;;;;;;;;;;;;;;;;;;;;;																																																														";;;;;;;;;;;;;;;;;;;;;;;;;;;;;;;;;;;;;;;;;;;;;;;;;;;;;;;;;;;;;;
;1;933015;83,1058;;;;1;;;;;933015;;;;;;;;;;1;2;;;;;;<li>Marca: Volvo </li><li>Modelo: 850 </li> <li>Fecha: (1992 - 1996 ) </li>  Espejo retrovisor  Mecánico Convexo de mano DERECHA Negro</li></ul>;<li>Marca: Volvo </li><li>Modelo: 850 </li> <li>Fecha: (1992 - 1996 ) </li>  Espejo retrovisor  Mecánico Convexo de mano DERECHA Negro</li></ul>;Marca: Volvo, Modelo: 850,Espejo retrovisor  Mecánico, Convexo, de mano DERECHA, Negro;;Marca: Volvo Modelo: 850Espejo retrovisor  Mecánico Convexo de mano DERECHA Negro;Marca: Volvo Modelo: 850Espejo retrovisor  Mecánico Convexo de mano DERECHA Negro;;;;1;;;1;;;;;;1;1;1;;;1;;;1992;1996;;1;2;1;1;Negro
;1;933016;83,1058;;;;1;;;;;933016;;;;;;;;;;1;2;;;;;;<li>Marca: Volvo </li><li>Modelo: 850 </li> <li>Fecha: (1992 - 1996 ) </li>  Espejo retrovisor  Mecánico Asférico de mano IZQUIERDA Negro</li></ul>;<li>Marca: Volvo </li><li>Modelo: 850 </li> <li>Fecha: (1992 - 1996 ) </li>  Espejo retrovisor  Mecánico Asférico de mano IZQUIERDA Negro</li></ul>;Marca: Volvo, Modelo: 850,Espejo retrovisor  Mecánico, Asférico, de mano IZQUIERDA, Negro;;Marca: Volvo Modelo: 850Espejo retrovisor  Mecánico Asférico de mano IZQUIERDA Negro;Marca: Volvo Modelo: 850Espejo retrovisor  Mecánico Asférico de mano IZQUIERDA Negro;;;;1;;;1;;;;;;1;1;1;;;1;;;1992;1996;;1;2;3;2;Negro
;1;933005;83,1058;;;;1;;;;;933005;;;;;;;;;;1;1;;;;;;<li>Marca: Volvo </li><li>Modelo: 850 </li> <li>Fecha: (1992 - 1996 ) </li>  Espejo retrovisor  Eléctrico Convexo de mano DERECHA Térmico Negro</li></ul>;<li>Marca: Volvo </li><li>Modelo: 850 </li> <li>Fecha: (1992 - 1996 ) </li>  Espejo retrovisor  Eléctrico Convexo de mano DERECHA Térmico Negro</li></ul>;Marca: Volvo, Modelo: 850,Espejo retrovisor  Eléctrico, Convexo, de mano DERECHA, Térmico Negro;;Marca: Volvo Modelo: 850Espejo retrovisor  Eléctrico Convexo de mano DERECHA Térmico Negro;Marca: Volvo Modelo: 850Espejo retrovisor  Eléctrico Convexo de mano DERECHA Térmico Negro;;;;1;;;1;;;;;;1;1;1;;;1;;;1992;1996;;1;1;1;1;Térmico Negro
;1;933006;83,1058;;;;1;;;;;933006;;;;;;;;;;1;1;;;;;;<li>Marca: Volvo </li><li>Modelo: 850 </li> <li>Fecha: (1992 - 1996 ) </li>  Espejo retrovisor  Eléctrico Asférico de mano IZQUIERDA Térmico Negro</li></ul>;<li>Marca: Volvo </li><li>Modelo: 850 </li> <li>Fecha: (1992 - 1996 ) </li>  Espejo retrovisor  Eléctrico Asférico de mano IZQUIERDA Térmico Negro</li></ul>;Marca: Volvo, Modelo: 850,Espejo retrovisor  Eléctrico, Asférico, de mano IZQUIERDA, Térmico Negro;;Marca: Volvo Modelo: 850Espejo retrovisor  Eléctrico Asférico de mano IZQUIERDA Térmico Negro;Marca: Volvo Modelo: 850Espejo retrovisor  Eléctrico Asférico de mano IZQUIERDA Térmico Negro;;;;1;;;1;;;;;;1;1;1;;;1;;;1992;1996;;1;1;3;2;Térmico Negro
;1;933011;83,1069;;;;1;;;;;933011;;;;;;;;;;1;0;;;;;;<li>Marca: Volvo </li><li>Modelo: S40 </li> <li>Fecha: (1995 - 2000 ) </li>  Espejo retrovisor  Mecánico Convexo de mano DERECHA Térmico Negro</li></ul>;<li>Marca: Volvo </li><li>Modelo: S40 </li> <li>Fecha: (1995 - 2000 ) </li>  Espejo retrovisor  Mecánico Convexo de mano DERECHA Térmico Negro</li></ul>;Marca: Volvo, Modelo: S40,Espejo retrovisor  Mecánico, Convexo, de mano DERECHA, Térmico Negro;;Marca: Volvo Modelo: S40Espejo retrovisor  Mecánico Convexo de mano DERECHA Térmico Negro;Marca: Volvo Modelo: S40Espejo retrovisor  Mecánico Convexo de mano DERECHA Térmico Negro;;;;1;;;1;;;;;;1;1;1;;;1;;;1995;2000;;1;2;1;1;Térmico Negro
;1;933012;83,1069;;;;1;;;;;933012;;;;;;;;;;1;0;;;;;;<li>Marca: Volvo </li><li>Modelo: S40 </li> <li>Fecha: (1995 - 2000 ) </li>  Espejo retrovisor  Mecánico Asférico de mano IZQUIERDA Térmico Negro</li></ul>;<li>Marca: Volvo </li><li>Modelo: S40 </li> <li>Fecha: (1995 - 2000 ) </li>  Espejo retrovisor  Mecánico Asférico de mano IZQUIERDA Térmico Negro</li></ul>;Marca: Volvo, Modelo: S40,Espejo retrovisor  Mecánico, Asférico, de mano IZQUIERDA, Térmico Negro;;Marca: Volvo Modelo: S40Espejo retrovisor  Mecánico Asférico de mano IZQUIERDA Térmico Negro;Marca: Volvo Modelo: S40Espejo retrovisor  Mecánico Asférico de mano IZQUIERDA Térmico Negro;;;;1;;;1;;;;;;1;1;1;;;1;;;1995;2000;;1;2;3;2;Térmico Negro
;1;933009;83,1069;;;;1;;;;;933009;;;;;;;;;;1;0;;;;;;<li>Marca: Volvo </li><li>Modelo: S40 </li> <li>Fecha: (1995 - 2000 ) </li>  Espejo retrovisor  Eléctrico Convexo de mano DERECHA Térmico Imprimado</li></ul>;<li>Marca: Volvo </li><li>Modelo: S40 </li> <li>Fecha: (1995 - 2000 ) </li>  Espejo retrovisor  Eléctrico Convexo de mano DERECHA Térmico Imprimado</li></ul>;Marca: Volvo, Modelo: S40,Espejo retrovisor  Eléctrico, Convexo, de mano DERECHA, Térmico Imprimado;;Marca: Volvo Modelo: S40Espejo retrovisor  Eléctrico Convexo de mano DERECHA Térmico Imprimado;Marca: Volvo Modelo: S40Espejo retrovisor  Eléctrico Convexo de mano DERECHA Térmico Imprimado;;;;1;;;1;;;;;;1;1;1;;;1;;;1995;2000;;1;1;1;1;Térmico Imprimado
;1;933010;83,1069;;;;1;;;;;933010;;;;;;;;;;1;0;;;;;;<li>Marca: Volvo </li><li>Modelo: S40 </li> <li>Fecha: (1995 - 2000 ) </li>  Espejo retrovisor  Eléctrico Asférico de mano IZQUIERDA Térmico Imprimado</li></ul>;<li>Marca: Volvo </li><li>Modelo: S40 </li> <li>Fecha: (1995 - 2000 ) </li>  Espejo retrovisor  Eléctrico Asférico de mano IZQUIERDA Térmico Imprimado</li></ul>;Marca: Volvo, Modelo: S40,Espejo retrovisor  Eléctrico, Asférico, de mano IZQUIERDA, Térmico Imprimado;;Marca: Volvo Modelo: S40Espejo retrovisor  Eléctrico Asférico de mano IZQUIERDA Térmico Imprimado;Marca: Volvo Modelo: S40Espejo retrovisor  Eléctrico Asférico de mano IZQUIERDA Térmico Imprimado;;;;1;;;1;;;;;;1;1;1;;;1;;;1995;2000;;1;1;3;2;Térmico Imprimado
;1;933011;83,1070;;;;1;;;;;933011;;;;;;;;;;1;0;;;;;;<li>Marca: Volvo </li><li>Modelo: V40 </li> <li>Fecha: (1995 - 2000 ) </li>  Espejo retrovisor  Mecánico Convexo de mano DERECHA Térmico Negro</li></ul>;<li>Marca: Volvo </li><li>Modelo: V40 </li> <li>Fecha: (1995 - 2000 ) </li>  Espejo retrovisor  Mecánico Convexo de mano DERECHA Térmico Negro</li></ul>;Marca: Volvo, Modelo: V40,Espejo retrovisor  Mecánico, Convexo, de mano DERECHA, Térmico Negro;;Marca: Volvo Modelo: V40Espejo retrovisor  Mecánico Convexo de mano DERECHA Térmico Negro;Marca: Volvo Modelo: V40Espejo retrovisor  Mecánico Convexo de mano DERECHA Térmico Negro;;;;1;;;1;;;;;;1;1;1;;;1;;;1995;2000;;1;2;1;1;Térmico Negro
;1;933012;83,1070;;;;1;;;;;933012;;;;;;;;;;1;0;;;;;;<li>Marca: Volvo </li><li>Modelo: V40 </li> <li>Fecha: (1995 - 2000 ) </li>  Espejo retrovisor  Mecánico Asférico de mano IZQUIERDA Térmico Negro</li></ul>;<li>Marca: Volvo </li><li>Modelo: V40 </li> <li>Fecha: (1995 - 2000 ) </li>  Espejo retrovisor  Mecánico Asférico de mano IZQUIERDA Térmico Negro</li></ul>;Marca: Volvo, Modelo: V40,Espejo retrovisor  Mecánico, Asférico, de mano IZQUIERDA, Térmico Negro;;Marca: Volvo Modelo: V40Espejo retrovisor  Mecánico Asférico de mano IZQUIERDA Térmico Negro;Marca: Volvo Modelo: V40Espejo retrovisor  Mecánico Asférico de mano IZQUIERDA Térmico Negro;;;;1;;;1;;;;;;1;1;1;;;1;;;1995;2000;;1;2;3;2;Térmico Negro
;1;933009;83,1070;;;;1;;;;;933009;;;;;;;;;;1;0;;;;;;<li>Marca: Volvo </li><li>Modelo: V40 </li> <li>Fecha: (1995 - 2000 ) </li>  Espejo retrovisor  Eléctrico Convexo de mano DERECHA Térmico Imprimado</li></ul>;<li>Marca: Volvo </li><li>Modelo: V40 </li> <li>Fecha: (1995 - 2000 ) </li>  Espejo retrovisor  Eléctrico Convexo de mano DERECHA Térmico Imprimado</li></ul>;Marca: Volvo, Modelo: V40,Espejo retrovisor  Eléctrico, Convexo, de mano DERECHA, Térmico Imprimado;;Marca: Volvo Modelo: V40Espejo retrovisor  Eléctrico Convexo de mano DERECHA Térmico Imprimado;Marca: Volvo Modelo: V40Espejo retrovisor  Eléctrico Convexo de mano DERECHA Térmico Imprimado;;;;1;;;1;;;;;;1;1;1;;;1;;;1995;2000;;1;1;1;1;Térmico Imprimado
;1;933010;83,1070;;;;1;;;;;933010;;;;;;;;;;1;0;;;;;;<li>Marca: Volvo </li><li>Modelo: V40 </li> <li>Fecha: (1995 - 2000 ) </li>  Espejo retrovisor  Eléctrico Asférico de mano IZQUIERDA Térmico Imprimado</li></ul>;<li>Marca: Volvo </li><li>Modelo: V40 </li> <li>Fecha: (1995 - 2000 ) </li>  Espejo retrovisor  Eléctrico Asférico de mano IZQUIERDA Térmico Imprimado</li></ul>;Marca: Volvo, Modelo: V40,Espejo retrovisor  Eléctrico, Asférico, de mano IZQUIERDA, Térmico Imprimado;;Marca: Volvo Modelo: V40Espejo retrovisor  Eléctrico Asférico de mano IZQUIERDA Térmico Imprimado;Marca: Volvo Modelo: V40Espejo retrovisor  Eléctrico Asférico de mano IZQUIERDA Térmico Imprimado;;;;1;;;1;;;;;;1;1;1;;;1;;;1995;2000;;1;1;3;2;Térmico Imprimado
;1;933015;83,1059;;;;1;;;;;933015;;;;;;;;;;1;2;;;;;;<li>Marca: Volvo </li><li>Modelo: S70 </li> <li>Fecha: (1996 - 2001 ) </li>  Espejo retrovisor  Mecánico Convexo de mano DERECHA Negro</li></ul>;<li>Marca: Volvo </li><li>Modelo: S70 </li> <li>Fecha: (1996 - 2001 ) </li>  Espejo retrovisor  Mecánico Convexo de mano DERECHA Negro</li></ul>;Marca: Volvo, Modelo: S70,Espejo retrovisor  Mecánico, Convexo, de mano DERECHA, Negro;;Marca: Volvo Modelo: S70Espejo retrovisor  Mecánico Convexo de mano DERECHA Negro;Marca: Volvo Modelo: S70Espejo retrovisor  Mecánico Convexo de mano DERECHA Negro;;;;1;;;1;;;;;;1;1;1;;;1;;;1996;2001;;1;2;1;1;Negro
;1;933016;83,1059;;;;1;;;;;933016;;;;;;;;;;1;2;;;;;;<li>Marca: Volvo </li><li>Modelo: S70 </li> <li>Fecha: (1996 - 2001 ) </li>  Espejo retrovisor  Mecánico Asférico de mano IZQUIERDA Negro</li></ul>;<li>Marca: Volvo </li><li>Modelo: S70 </li> <li>Fecha: (1996 - 2001 ) </li>  Espejo retrovisor  Mecánico Asférico de mano IZQUIERDA Negro</li></ul>;Marca: Volvo, Modelo: S70,Espejo retrovisor  Mecánico, Asférico, de mano IZQUIERDA, Negro;;Marca: Volvo Modelo: S70Espejo retrovisor  Mecánico Asférico de mano IZQUIERDA Negro;Marca: Volvo Modelo: S70Espejo retrovisor  Mecánico Asférico de mano IZQUIERDA Negro;;;;1;;;1;;;;;;1;1;1;;;1;;;1996;2001;;1;2;3;2;Negro
;1;933005;83,1059;;;;1;;;;;933005;;;;;;;;;;1;1;;;;;;<li>Marca: Volvo </li><li>Modelo: S70 </li> <li>Fecha: (1996 - 2001 ) </li>  Espejo retrovisor  Eléctrico Convexo de mano DERECHA Térmico Negro</li></ul>;<li>Marca: Volvo </li><li>Modelo: S70 </li> <li>Fecha: (1996 - 2001 ) </li>  Espejo retrovisor  Eléctrico Convexo de mano DERECHA Térmico Negro</li></ul>;Marca: Volvo, Modelo: S70,Espejo retrovisor  Eléctrico, Convexo, de mano DERECHA, Térmico Negro;;Marca: Volvo Modelo: S70Espejo retrovisor  Eléctrico Convexo de mano DERECHA Térmico Negro;Marca: Volvo Modelo: S70Espejo retrovisor  Eléctrico Convexo de mano DERECHA Térmico Negro;;;;1;;;1;;;;;;1;1;1;;;1;;;1996;2001;;1;1;1;1;Térmico Negro
;1;933006;83,1059;;;;1;;;;;933006;;;;;;;;;;1;1;;;;;;<li>Marca: Volvo </li><li>Modelo: S70 </li> <li>Fecha: (1996 - 2001 ) </li>  Espejo retrovisor  Eléctrico Asférico de mano IZQUIERDA Térmico Negro</li></ul>;<li>Marca: Volvo </li><li>Modelo: S70 </li> <li>Fecha: (1996 - 2001 ) </li>  Espejo retrovisor  Eléctrico Asférico de mano IZQUIERDA Térmico Negro</li></ul>;Marca: Volvo, Modelo: S70,Espejo retrovisor  Eléctrico, Asférico, de mano IZQUIERDA, Térmico Negro;;Marca: Volvo Modelo: S70Espejo retrovisor  Eléctrico Asférico de mano IZQUIERDA Térmico Negro;Marca: Volvo Modelo: S70Espejo retrovisor  Eléctrico Asférico de mano IZQUIERDA Térmico Negro;;;;1;;;1;;;;;;1;1;1;;;1;;;1996;2001;;1;1;3;2;Térmico Negro
;1;933015;83,1060;;;;1;;;;;933015;;;;;;;;;;1;2;;;;;;<li>Marca: Volvo </li><li>Modelo: V70 </li> <li>Fecha: (1996 - 2001 ) </li>  Espejo retrovisor  Mecánico Convexo de mano DERECHA Negro</li></ul>;<li>Marca: Volvo </li><li>Modelo: V70 </li> <li>Fecha: (1996 - 2001 ) </li>  Espejo retrovisor  Mecánico Convexo de mano DERECHA Negro</li></ul>;Marca: Volvo, Modelo: V70,Espejo retrovisor  Mecánico, Convexo, de mano DERECHA, Negro;;Marca: Volvo Modelo: V70Espejo retrovisor  Mecánico Convexo de mano DERECHA Negro;Marca: Volvo Modelo: V70Espejo retrovisor  Mecánico Convexo de mano DERECHA Negro;;;;1;;;1;;;;;;1;1;1;;;1;;;1996;2001;;1;2;1;1;Negro
;1;933016;83,1060;;;;1;;;;;933016;;;;;;;;;;1;2;;;;;;<li>Marca: Volvo </li><li>Modelo: V70 </li> <li>Fecha: (1996 - 2001 ) </li>  Espejo retrovisor  Mecánico Asférico de mano IZQUIERDA Negro</li></ul>;<li>Marca: Volvo </li><li>Modelo: V70 </li> <li>Fecha: (1996 - 2001 ) </li>  Espejo retrovisor  Mecánico Asférico de mano IZQUIERDA Negro</li></ul>;Marca: Volvo, Modelo: V70,Espejo retrovisor  Mecánico, Asférico, de mano IZQUIERDA, Negro;;Marca: Volvo Modelo: V70Espejo retrovisor  Mecánico Asférico de mano IZQUIERDA Negro;Marca: Volvo Modelo: V70Espejo retrovisor  Mecánico Asférico de mano IZQUIERDA Negro;;;;1;;;1;;;;;;1;1;1;;;1;;;1996;2001;;1;2;3;2;Negro
;1;933005;83,1060;;;;1;;;;;933005;;;;;;;;;;1;1;;;;;;<li>Marca: Volvo </li><li>Modelo: V70 </li> <li>Fecha: (1996 - 2001 ) </li>  Espejo retrovisor  Eléctrico Convexo de mano DERECHA Térmico Negro</li></ul>;<li>Marca: Volvo </li><li>Modelo: V70 </li> <li>Fecha: (1996 - 2001 ) </li>  Espejo retrovisor  Eléctrico Convexo de mano DERECHA Térmico Negro</li></ul>;Marca: Volvo, Modelo: V70,Espejo retrovisor  Eléctrico, Convexo, de mano DERECHA, Térmico Negro;;Marca: Volvo Modelo: V70Espejo retrovisor  Eléctrico Convexo de mano DERECHA Térmico Negro;Marca: Volvo Modelo: V70Espejo retrovisor  Eléctrico Convexo de mano DERECHA Térmico Negro;;;;1;;;1;;;;;;1;1;1;;;1;;;1996;2001;;1;1;1;1;Térmico Negro
;1;933006;83,1060;;;;1;;;;;933006;;;;;;;;;;1;1;;;;;;<li>Marca: Volvo </li><li>Modelo: V70 </li> <li>Fecha: (1996 - 2001 ) </li>  Espejo retrovisor  Eléctrico Asférico de mano IZQUIERDA Térmico Negro</li></ul>;<li>Marca: Volvo </li><li>Modelo: V70 </li> <li>Fecha: (1996 - 2001 ) </li>  Espejo retrovisor  Eléctrico Asférico de mano IZQUIERDA Térmico Negro</li></ul>;Marca: Volvo, Modelo: V70,Espejo retrovisor  Eléctrico, Asférico, de mano IZQUIERDA, Térmico Negro;;Marca: Volvo Modelo: V70Espejo retrovisor  Eléctrico Asférico de mano IZQUIERDA Térmico Negro;Marca: Volvo Modelo: V70Espejo retrovisor  Eléctrico Asférico de mano IZQUIERDA Térmico Negro;;;;1;;;1;;;;;;1;1;1;;;1;;;1996;2001;;1;1;3;2;Térmico Negro
