﻿"Id(no rellenar);Activo (0=No/1=No);Nombre;Categorias (x	y	""z...);Precio con Iva Incluido (PVP);Regla Impuestos (IVA) (1=21% 2=10% 3=4%);Precio mayorista;En venta 0=noO 1=si (0/1);Importe descuento;Descuento porcentual;Discount desde (yyyy-mm-dd);Discount hasta (yyyy-mm-dd);Referencia comercio;referencia proveedor;Proveedor;Fabricante;EAN13(código de barras);UPC;Ecotasa;ancho;alto;profundidad;Weight;Cantidad;Cantidad mínima;Visibilidad;Coste adicional envio;Unidad;ratio precio unitario;Descripción corta;Descripción larga;Tags (x""	y	""z...);meta_title;meta_keywords;meta_description;Enlace reescrito;Text cuando está en stock;Text when backorder allowed;Disponible para pedido (0 = No""	"" 1 = Yes);Fecha disponibilidad de producto;Fecha creación producto;Mostrar precio (0 = No""	"" 1 = Yes);Imagen URLs (x""	y	""z...);Borra imágenes existentes (0 = No""	"" 1 = Yes);Feature(Name:Value:Position);Disponible sólo online (0 = No""	"" 1 = Yes);Condición;Personalizabke (0 = No""	"" 1 = Yes);Uploadable files (0 = No""	"" 1 = Yes);Text fields (0 = No""	"" 1 = Yes);Out_of_stock;Advanced stock management;ID / Nombre de tiienda;carroceria;version;fecha_inicio;fecha_fin;puertas;despiece;regulacion;cristal;mano;caracteristicas"";;;;;;;;;;;;;;;;;;;;;;;;;;;;;;;;;;;;;;;;;;;;;;;;;;;;;;;;;;;;;;;;;;;;;;;;;;;;;;;;;;;;;;;;;;;;;;;;;;;;;;;;;;;;;;;;;;;;;;;;;;;;;;;;;;;;;;;;;;;;;;;;;;;;;;;;;;;;;;;;;;;;;;;;;;;;;;;;;;;;;;;;;;;;;;;;;;;;;;;;;;;;;;;;;;;;;;;;;;;;;;;;;;;;;;;;;;;;;;;;;;;;;;;;;;;;;;;;;;;;;;;;;;;;;;;;;;;;;;;;;;;;;;;;;;;;;;;;;;;;;;;;;;;;;;;;;;;;;;;;;;;;;;;;;;;;;;;;;;;;;;;;;;;;;;;;;;;;;;;;																																																														;;;;;;;;;;;;;;;;;;;;;;;;;;;;;;;;;;;;;;;;;;;;;;;;;;;;;;;;;;;;;;;;;;;;;;;;;;;;;;;;;;;;;;;;;;;;;;;;;;;;;;;;;;;;;;;;;;;;;;;;;;;;;;;;;;;;;;;;;;;;;;;;;;;;;;;;;;;;;;;;;;;;;;;;;;;;;;;;;;;;;;;;;;";;;;;;;;;;;;;;;;;;;;;;;;;;;;;;;;;;;;;;;;;;;;;;;;;;;;;;;;;;;;;;
;1;934001;7,95;39,37;;;1;;;;;934001;;;;;;;;;;1;0;;;;;;<li>Marca: Alfa Romeo </li><li>Modelo: 145 </li> <li>Fecha: (1994 - 1999 ) </li>  <li>Espejo retrovisor COMPLETO de regulación Mecánica con cristal Convexo Azul de mano DERECHA Negro</li></ul>;<li>Marca: Alfa Romeo </li><li>Modelo: 145 </li> <li>Fecha: (1994 - 1999 ) </li>  <li>Espejo retrovisor COMPLETO de regulación Mecánica con cristal Convexo Azul de mano DERECHA Negro</li></ul>;Marca: Alfa Romeo, Modelo: 145,Espejo retrovisor COMPLETO, de regulación Mecánica, con cristal Convexo Azul, de mano DERECHA, Negro;;Marca: Alfa Romeo Modelo: 145Espejo retrovisor COMPLETO de regulación Mecánica con cristal Convexo Azul de mano DERECHA Negro;Marca: Alfa Romeo Modelo: 145Espejo retrovisor COMPLETO de regulación Mecánica con cristal Convexo Azul de mano DERECHA Negro;;;;1;;;1;http://www.2automocion.com/fotos/934001.jpg;;;;;1;1;1;;;1;;;1994;1999;;1;2;;1;Negro
;1;934002;7,95;39,37;;;1;;;;;934002;;;;;;;;;;1;0;;;;;;<li>Marca: Alfa Romeo </li><li>Modelo: 145 </li> <li>Fecha: (1994 - 1999 ) </li>  <li>Espejo retrovisor COMPLETO de regulación Mecánica con cristal Plano Azul de mano IZQUIERDA Negro</li></ul>;<li>Marca: Alfa Romeo </li><li>Modelo: 145 </li> <li>Fecha: (1994 - 1999 ) </li>  <li>Espejo retrovisor COMPLETO de regulación Mecánica con cristal Plano Azul de mano IZQUIERDA Negro</li></ul>;Marca: Alfa Romeo, Modelo: 145,Espejo retrovisor COMPLETO, de regulación Mecánica, con cristal Plano Azul, de mano IZQUIERDA, Negro;;Marca: Alfa Romeo Modelo: 145Espejo retrovisor COMPLETO de regulación Mecánica con cristal Plano Azul de mano IZQUIERDA Negro;Marca: Alfa Romeo Modelo: 145Espejo retrovisor COMPLETO de regulación Mecánica con cristal Plano Azul de mano IZQUIERDA Negro;;;;1;;;1;http://www.2automocion.com/fotos/934002.jpg;;;;;1;1;1;;;1;;;1994;1999;;1;2;;2;Negro
;1;934007;7,95;52,18;;;1;;;;;934007;;;;;;;;;;1;0;;;;;;<li>Marca: Alfa Romeo </li><li>Modelo: 145 </li> <li>Fecha: (1994 - 1999 ) </li>  <li>Espejo retrovisor COMPLETO de regulación Eléctrica con cristal Convexo Azul de mano DERECHA Térmico Negro</li></ul>;<li>Marca: Alfa Romeo </li><li>Modelo: 145 </li> <li>Fecha: (1994 - 1999 ) </li>  <li>Espejo retrovisor COMPLETO de regulación Eléctrica con cristal Convexo Azul de mano DERECHA Térmico Negro</li></ul>;Marca: Alfa Romeo, Modelo: 145,Espejo retrovisor COMPLETO, de regulación Eléctrica, con cristal Convexo Azul, de mano DERECHA, Térmico Negro;;Marca: Alfa Romeo Modelo: 145Espejo retrovisor COMPLETO de regulación Eléctrica con cristal Convexo Azul de mano DERECHA Térmico Negro;Marca: Alfa Romeo Modelo: 145Espejo retrovisor COMPLETO de regulación Eléctrica con cristal Convexo Azul de mano DERECHA Térmico Negro;;;;1;;;1;http://www.2automocion.com/fotos/934007.jpg;;;;;1;1;1;;;1;;;1994;1999;;1;1;;1;Térmico Negro
;1;934008;7,95;52,18;;;1;;;;;934008;;;;;;;;;;1;0;;;;;;<li>Marca: Alfa Romeo </li><li>Modelo: 145 </li> <li>Fecha: (1994 - 1999 ) </li>  <li>Espejo retrovisor COMPLETO de regulación Eléctrica con cristal Plano Azul de mano IZQUIERDA Térmico Negro</li></ul>;<li>Marca: Alfa Romeo </li><li>Modelo: 145 </li> <li>Fecha: (1994 - 1999 ) </li>  <li>Espejo retrovisor COMPLETO de regulación Eléctrica con cristal Plano Azul de mano IZQUIERDA Térmico Negro</li></ul>;Marca: Alfa Romeo, Modelo: 145,Espejo retrovisor COMPLETO, de regulación Eléctrica, con cristal Plano Azul, de mano IZQUIERDA, Térmico Negro;;Marca: Alfa Romeo Modelo: 145Espejo retrovisor COMPLETO de regulación Eléctrica con cristal Plano Azul de mano IZQUIERDA Térmico Negro;Marca: Alfa Romeo Modelo: 145Espejo retrovisor COMPLETO de regulación Eléctrica con cristal Plano Azul de mano IZQUIERDA Térmico Negro;;;;1;;;1;http://www.2automocion.com/fotos/934008.jpg;;;;;1;1;1;;;1;;;1994;1999;;1;1;;2;Térmico Negro
;1;934011;7,95;54,84;;;1;;;;;934011;;;;;;;;;;1;0;;;;;;<li>Marca: Alfa Romeo </li><li>Modelo: 145 </li> <li>Fecha: (1994 - 1999 ) </li>  <li>Espejo retrovisor COMPLETO de regulación Eléctrica con cristal Convexo Azul de mano DERECHA Térmico Negro Sensor de Temperatura</li></ul>;<li>Marca: Alfa Romeo </li><li>Modelo: 145 </li> <li>Fecha: (1994 - 1999 ) </li>  <li>Espejo retrovisor COMPLETO de regulación Eléctrica con cristal Convexo Azul de mano DERECHA Térmico Negro Sensor de Temperatura</li></ul>;Marca: Alfa Romeo, Modelo: 145,Espejo retrovisor COMPLETO, de regulación Eléctrica, con cristal Convexo Azul, de mano DERECHA, Térmico Negro Sensor de Temperatura;;Marca: Alfa Romeo Modelo: 145Espejo retrovisor COMPLETO de regulación Eléctrica con cristal Convexo Azul de mano DERECHA Térmico Negro Sensor de Temperatura;Marca: Alfa Romeo Modelo: 145Espejo retrovisor COMPLETO de regulación Eléctrica con cristal Convexo Azul de mano DERECHA Térmico Negro Sensor de Temperatura;;;;1;;;1;http://www.2automocion.com/fotos/934011.jpg;;;;;1;1;1;;;1;;;1994;1999;;1;1;;1;Térmico Negro Sensor de Temperatura
;1;934003;7,95;59,68;;;1;;;;;934003;;;;;;;;;;1;0;;;;;;<li>Marca: Alfa Romeo </li><li>Modelo: 145 </li> <li>Fecha: (1994 - 1999 ) </li>  <li>Espejo retrovisor COMPLETO de regulación Eléctrica con cristal Convexo Azul de mano DERECHA Térmico Imprimado</li></ul>;<li>Marca: Alfa Romeo </li><li>Modelo: 145 </li> <li>Fecha: (1994 - 1999 ) </li>  <li>Espejo retrovisor COMPLETO de regulación Eléctrica con cristal Convexo Azul de mano DERECHA Térmico Imprimado</li></ul>;Marca: Alfa Romeo, Modelo: 145,Espejo retrovisor COMPLETO, de regulación Eléctrica, con cristal Convexo Azul, de mano DERECHA, Térmico Imprimado;;Marca: Alfa Romeo Modelo: 145Espejo retrovisor COMPLETO de regulación Eléctrica con cristal Convexo Azul de mano DERECHA Térmico Imprimado;Marca: Alfa Romeo Modelo: 145Espejo retrovisor COMPLETO de regulación Eléctrica con cristal Convexo Azul de mano DERECHA Térmico Imprimado;;;;1;;;1;http://www.2automocion.com/fotos/934003.jpg;;;;;1;1;1;;;1;;;1994;1999;;1;1;;1;Térmico Imprimado
;1;934004;7,95;59,68;;;1;;;;;934004;;;;;;;;;;1;0;;;;;;<li>Marca: Alfa Romeo </li><li>Modelo: 145 </li> <li>Fecha: (1994 - 1999 ) </li>  <li>Espejo retrovisor COMPLETO de regulación Eléctrica con cristal Plano Azul de mano IZQUIERDA Térmico Imprimado</li></ul>;<li>Marca: Alfa Romeo </li><li>Modelo: 145 </li> <li>Fecha: (1994 - 1999 ) </li>  <li>Espejo retrovisor COMPLETO de regulación Eléctrica con cristal Plano Azul de mano IZQUIERDA Térmico Imprimado</li></ul>;Marca: Alfa Romeo, Modelo: 145,Espejo retrovisor COMPLETO, de regulación Eléctrica, con cristal Plano Azul, de mano IZQUIERDA, Térmico Imprimado;;Marca: Alfa Romeo Modelo: 145Espejo retrovisor COMPLETO de regulación Eléctrica con cristal Plano Azul de mano IZQUIERDA Térmico Imprimado;Marca: Alfa Romeo Modelo: 145Espejo retrovisor COMPLETO de regulación Eléctrica con cristal Plano Azul de mano IZQUIERDA Térmico Imprimado;;;;1;;;1;http://www.2automocion.com/fotos/934004.jpg;;;;;1;1;1;;;1;;;1994;1999;;1;1;;2;Térmico Imprimado
;1;934012;7,95;59,68;;;1;;;;;934012;;;;;;;;;;1;0;;;;;;<li>Marca: Alfa Romeo </li><li>Modelo: 145 </li> <li>Fecha: (1994 - 1999 ) </li>  <li>Espejo retrovisor COMPLETO de regulación Eléctrica con cristal Convexo Azul de mano DERECHA Térmico Imprimado Sensor de Temperatura</li></ul>;<li>Marca: Alfa Romeo </li><li>Modelo: 145 </li> <li>Fecha: (1994 - 1999 ) </li>  <li>Espejo retrovisor COMPLETO de regulación Eléctrica con cristal Convexo Azul de mano DERECHA Térmico Imprimado Sensor de Temperatura</li></ul>;Marca: Alfa Romeo, Modelo: 145,Espejo retrovisor COMPLETO, de regulación Eléctrica, con cristal Convexo Azul, de mano DERECHA, Térmico Imprimado Sensor de Temperatura;;Marca: Alfa Romeo Modelo: 145Espejo retrovisor COMPLETO de regulación Eléctrica con cristal Convexo Azul de mano DERECHA Térmico Imprimado Sensor de Temperatura;Marca: Alfa Romeo Modelo: 145Espejo retrovisor COMPLETO de regulación Eléctrica con cristal Convexo Azul de mano DERECHA Térmico Imprimado Sensor de Temperatura;;;;1;;;1;http://www.2automocion.com/fotos/934012.jpg;;;;;1;1;1;;;1;;;1994;1999;;1;1;;1;Térmico Imprimado Sensor de Temperatura
;1;934013;7,97;40,93;;;1;;;;;934013;;;;;;;;;;1;1;;;;;;<li>Marca: Alfa Romeo </li><li>Modelo: 146 </li> <li>Fecha: (1994 - 1999 ) </li>  <li>Espejo retrovisor COMPLETO de regulación Mecánica con cristal Convexo Azul de mano DERECHA Negro</li></ul>;<li>Marca: Alfa Romeo </li><li>Modelo: 146 </li> <li>Fecha: (1994 - 1999 ) </li>  <li>Espejo retrovisor COMPLETO de regulación Mecánica con cristal Convexo Azul de mano DERECHA Negro</li></ul>;Marca: Alfa Romeo, Modelo: 146,Espejo retrovisor COMPLETO, de regulación Mecánica, con cristal Convexo Azul, de mano DERECHA, Negro;;Marca: Alfa Romeo Modelo: 146Espejo retrovisor COMPLETO de regulación Mecánica con cristal Convexo Azul de mano DERECHA Negro;Marca: Alfa Romeo Modelo: 146Espejo retrovisor COMPLETO de regulación Mecánica con cristal Convexo Azul de mano DERECHA Negro;;;;1;;;1;http://www.2automocion.com/fotos/934013.jpg;;;;;1;1;1;;;1;;;1994;1999;;1;2;;1;Negro
;1;934014;7,97;40,93;;;1;;;;;934014;;;;;;;;;;1;0;;;;;;<li>Marca: Alfa Romeo </li><li>Modelo: 146 </li> <li>Fecha: (1994 - 1999 ) </li>  <li>Espejo retrovisor COMPLETO de regulación Mecánica con cristal Plano Azul de mano IZQUIERDA Negro</li></ul>;<li>Marca: Alfa Romeo </li><li>Modelo: 146 </li> <li>Fecha: (1994 - 1999 ) </li>  <li>Espejo retrovisor COMPLETO de regulación Mecánica con cristal Plano Azul de mano IZQUIERDA Negro</li></ul>;Marca: Alfa Romeo, Modelo: 146,Espejo retrovisor COMPLETO, de regulación Mecánica, con cristal Plano Azul, de mano IZQUIERDA, Negro;;Marca: Alfa Romeo Modelo: 146Espejo retrovisor COMPLETO de regulación Mecánica con cristal Plano Azul de mano IZQUIERDA Negro;Marca: Alfa Romeo Modelo: 146Espejo retrovisor COMPLETO de regulación Mecánica con cristal Plano Azul de mano IZQUIERDA Negro;;;;1;;;1;http://www.2automocion.com/fotos/934014.jpg;;;;;1;1;1;;;1;;;1994;1999;;1;2;;2;Negro
;1;934015;7,97;57,03;;;1;;;;;934015;;;;;;;;;;1;0;;;;;;<li>Marca: Alfa Romeo </li><li>Modelo: 146 </li> <li>Fecha: (1994 - 1999 ) </li>  <li>Espejo retrovisor COMPLETO de regulación Eléctrica con cristal Convexo Azul de mano DERECHA Térmico Negro</li></ul>;<li>Marca: Alfa Romeo </li><li>Modelo: 146 </li> <li>Fecha: (1994 - 1999 ) </li>  <li>Espejo retrovisor COMPLETO de regulación Eléctrica con cristal Convexo Azul de mano DERECHA Térmico Negro</li></ul>;Marca: Alfa Romeo, Modelo: 146,Espejo retrovisor COMPLETO, de regulación Eléctrica, con cristal Convexo Azul, de mano DERECHA, Térmico Negro;;Marca: Alfa Romeo Modelo: 146Espejo retrovisor COMPLETO de regulación Eléctrica con cristal Convexo Azul de mano DERECHA Térmico Negro;Marca: Alfa Romeo Modelo: 146Espejo retrovisor COMPLETO de regulación Eléctrica con cristal Convexo Azul de mano DERECHA Térmico Negro;;;;1;;;1;http://www.2automocion.com/fotos/934015.jpg;;;;;1;1;1;;;1;;;1994;1999;;1;1;;1;Térmico Negro
;1;934016;7,97;57,03;;;1;;;;;934016;;;;;;;;;;1;0;;;;;;<li>Marca: Alfa Romeo </li><li>Modelo: 146 </li> <li>Fecha: (1994 - 1999 ) </li>  <li>Espejo retrovisor COMPLETO de regulación Eléctrica con cristal Plano Azul de mano IZQUIERDA Térmico Negro</li></ul>;<li>Marca: Alfa Romeo </li><li>Modelo: 146 </li> <li>Fecha: (1994 - 1999 ) </li>  <li>Espejo retrovisor COMPLETO de regulación Eléctrica con cristal Plano Azul de mano IZQUIERDA Térmico Negro</li></ul>;Marca: Alfa Romeo, Modelo: 146,Espejo retrovisor COMPLETO, de regulación Eléctrica, con cristal Plano Azul, de mano IZQUIERDA, Térmico Negro;;Marca: Alfa Romeo Modelo: 146Espejo retrovisor COMPLETO de regulación Eléctrica con cristal Plano Azul de mano IZQUIERDA Térmico Negro;Marca: Alfa Romeo Modelo: 146Espejo retrovisor COMPLETO de regulación Eléctrica con cristal Plano Azul de mano IZQUIERDA Térmico Negro;;;;1;;;1;http://www.2automocion.com/fotos/934016.jpg;;;;;1;1;1;;;1;;;1994;1999;;1;1;;2;Térmico Negro
;1;934019;7,97;60;;;1;;;;;934019;;;;;;;;;;1;0;;;;;;<li>Marca: Alfa Romeo </li><li>Modelo: 146 </li> <li>Fecha: (1994 - 1999 ) </li>  <li>Espejo retrovisor COMPLETO de regulación Eléctrica con cristal Convexo Azul de mano DERECHA Térmico Negro Sensor de Temperatura</li></ul>;<li>Marca: Alfa Romeo </li><li>Modelo: 146 </li> <li>Fecha: (1994 - 1999 ) </li>  <li>Espejo retrovisor COMPLETO de regulación Eléctrica con cristal Convexo Azul de mano DERECHA Térmico Negro Sensor de Temperatura</li></ul>;Marca: Alfa Romeo, Modelo: 146,Espejo retrovisor COMPLETO, de regulación Eléctrica, con cristal Convexo Azul, de mano DERECHA, Térmico Negro Sensor de Temperatura;;Marca: Alfa Romeo Modelo: 146Espejo retrovisor COMPLETO de regulación Eléctrica con cristal Convexo Azul de mano DERECHA Térmico Negro Sensor de Temperatura;Marca: Alfa Romeo Modelo: 146Espejo retrovisor COMPLETO de regulación Eléctrica con cristal Convexo Azul de mano DERECHA Térmico Negro Sensor de Temperatura;;;;1;;;1;http://www.2automocion.com/fotos/934019.jpg;;;;;1;1;1;;;1;;;1994;1999;;1;1;;1;Térmico Negro Sensor de Temperatura
;1;934017;7,97;60;;;1;;;;;934017;;;;;;;;;;1;0;;;;;;<li>Marca: Alfa Romeo </li><li>Modelo: 146 </li> <li>Fecha: (1994 - 1999 ) </li>  <li>Espejo retrovisor COMPLETO de regulación Eléctrica con cristal Convexo Azul de mano DERECHA Térmico Imprimado</li></ul>;<li>Marca: Alfa Romeo </li><li>Modelo: 146 </li> <li>Fecha: (1994 - 1999 ) </li>  <li>Espejo retrovisor COMPLETO de regulación Eléctrica con cristal Convexo Azul de mano DERECHA Térmico Imprimado</li></ul>;Marca: Alfa Romeo, Modelo: 146,Espejo retrovisor COMPLETO, de regulación Eléctrica, con cristal Convexo Azul, de mano DERECHA, Térmico Imprimado;;Marca: Alfa Romeo Modelo: 146Espejo retrovisor COMPLETO de regulación Eléctrica con cristal Convexo Azul de mano DERECHA Térmico Imprimado;Marca: Alfa Romeo Modelo: 146Espejo retrovisor COMPLETO de regulación Eléctrica con cristal Convexo Azul de mano DERECHA Térmico Imprimado;;;;1;;;1;http://www.2automocion.com/fotos/934017.jpg;;;;;1;1;1;;;1;;;1994;1999;;1;1;;1;Térmico Imprimado
;1;934018;7,97;60;;;1;;;;;934018;;;;;;;;;;1;0;;;;;;<li>Marca: Alfa Romeo </li><li>Modelo: 146 </li> <li>Fecha: (1994 - 1999 ) </li>  <li>Espejo retrovisor COMPLETO de regulación Eléctrica con cristal Plano Azul de mano IZQUIERDA Térmico Imprimado</li></ul>;<li>Marca: Alfa Romeo </li><li>Modelo: 146 </li> <li>Fecha: (1994 - 1999 ) </li>  <li>Espejo retrovisor COMPLETO de regulación Eléctrica con cristal Plano Azul de mano IZQUIERDA Térmico Imprimado</li></ul>;Marca: Alfa Romeo, Modelo: 146,Espejo retrovisor COMPLETO, de regulación Eléctrica, con cristal Plano Azul, de mano IZQUIERDA, Térmico Imprimado;;Marca: Alfa Romeo Modelo: 146Espejo retrovisor COMPLETO de regulación Eléctrica con cristal Plano Azul de mano IZQUIERDA Térmico Imprimado;Marca: Alfa Romeo Modelo: 146Espejo retrovisor COMPLETO de regulación Eléctrica con cristal Plano Azul de mano IZQUIERDA Térmico Imprimado;;;;1;;;1;http://www.2automocion.com/fotos/934018.jpg;;;;;1;1;1;;;1;;;1994;1999;;1;1;;2;Térmico Imprimado
;1;934020;7,97;61,25;;;1;;;;;934020;;;;;;;;;;1;0;;;;;;<li>Marca: Alfa Romeo </li><li>Modelo: 146 </li> <li>Fecha: (1994 - 1999 ) </li>  <li>Espejo retrovisor COMPLETO de regulación Eléctrica con cristal Convexo Azul de mano DERECHA Térmico Imprimado Sensor de Temperatura</li></ul>;<li>Marca: Alfa Romeo </li><li>Modelo: 146 </li> <li>Fecha: (1994 - 1999 ) </li>  <li>Espejo retrovisor COMPLETO de regulación Eléctrica con cristal Convexo Azul de mano DERECHA Térmico Imprimado Sensor de Temperatura</li></ul>;Marca: Alfa Romeo, Modelo: 146,Espejo retrovisor COMPLETO, de regulación Eléctrica, con cristal Convexo Azul, de mano DERECHA, Térmico Imprimado Sensor de Temperatura;;Marca: Alfa Romeo Modelo: 146Espejo retrovisor COMPLETO de regulación Eléctrica con cristal Convexo Azul de mano DERECHA Térmico Imprimado Sensor de Temperatura;Marca: Alfa Romeo Modelo: 146Espejo retrovisor COMPLETO de regulación Eléctrica con cristal Convexo Azul de mano DERECHA Térmico Imprimado Sensor de Temperatura;;;;1;;;1;http://www.2automocion.com/fotos/934020.jpg;;;;;1;1;1;;;1;;;1994;1999;;1;1;;1;Térmico Imprimado Sensor de Temperatura
;1;934021;7,96;36,4;;;1;;;;;934021;;;;;;;;;;1;0;;;;;;<li>Marca: Alfa Romeo </li><li>Modelo: 147 </li> <li>Fecha: (2001 - 2014 ) </li>  <li>Espejo retrovisor COMPLETO de regulación Eléctrica con cristal Convexo de mano DERECHA Térmico Imprimado</li></ul>;<li>Marca: Alfa Romeo </li><li>Modelo: 147 </li> <li>Fecha: (2001 - 2014 ) </li>  <li>Espejo retrovisor COMPLETO de regulación Eléctrica con cristal Convexo de mano DERECHA Térmico Imprimado</li></ul>;Marca: Alfa Romeo, Modelo: 147,Espejo retrovisor COMPLETO, de regulación Eléctrica, con cristal Convexo, de mano DERECHA, Térmico Imprimado;;Marca: Alfa Romeo Modelo: 147Espejo retrovisor COMPLETO de regulación Eléctrica con cristal Convexo de mano DERECHA Térmico Imprimado;Marca: Alfa Romeo Modelo: 147Espejo retrovisor COMPLETO de regulación Eléctrica con cristal Convexo de mano DERECHA Térmico Imprimado;;;;1;;;1;http://www.2automocion.com/fotos/934021.jpg;;;;;1;1;1;;;1;;;2001;2014;;1;1;1;1;Térmico Imprimado
;1;934022;7,96;36,4;;;1;;;;;934022;;;;;;;;;;1;0;;;;;;<li>Marca: Alfa Romeo </li><li>Modelo: 147 </li> <li>Fecha: (2001 - 2014 ) </li>  <li>Espejo retrovisor COMPLETO de regulación Eléctrica con cristal Asférico de mano IZQUIERDA Térmico Imprimado Sensor de Temperatura</li></ul>;<li>Marca: Alfa Romeo </li><li>Modelo: 147 </li> <li>Fecha: (2001 - 2014 ) </li>  <li>Espejo retrovisor COMPLETO de regulación Eléctrica con cristal Asférico de mano IZQUIERDA Térmico Imprimado Sensor de Temperatura</li></ul>;Marca: Alfa Romeo, Modelo: 147,Espejo retrovisor COMPLETO, de regulación Eléctrica, con cristal Asférico, de mano IZQUIERDA, Térmico Imprimado Sensor de Temperatura;;Marca: Alfa Romeo Modelo: 147Espejo retrovisor COMPLETO de regulación Eléctrica con cristal Asférico de mano IZQUIERDA Térmico Imprimado Sensor de Temperatura;Marca: Alfa Romeo Modelo: 147Espejo retrovisor COMPLETO de regulación Eléctrica con cristal Asférico de mano IZQUIERDA Térmico Imprimado Sensor de Temperatura;;;;1;;;1;http://www.2automocion.com/fotos/934022.jpg;;;;;1;1;1;;;1;;;2001;2014;;1;1;3;2;Térmico Imprimado Sensor de Temperatura
;1;670135;7,96;19,84;;;1;;;;;670135;;;;;;;;;;1;8;;;;;;<li>Marca: Alfa Romeo </li><li>Modelo: 147 </li> <li>Fecha: (2001 - 2014 ) </li>  <li>Espejo retrovisor CRISTAL de regulación  con cristal Convexo de mano DERECHA Térmico Negro</li></ul>;<li>Marca: Alfa Romeo </li><li>Modelo: 147 </li> <li>Fecha: (2001 - 2014 ) </li>  <li>Espejo retrovisor CRISTAL de regulación  con cristal Convexo de mano DERECHA Térmico Negro</li></ul>;Marca: Alfa Romeo, Modelo: 147,Espejo retrovisor CRISTAL, de regulación , con cristal Convexo, de mano DERECHA, Térmico Negro;;Marca: Alfa Romeo Modelo: 147Espejo retrovisor CRISTAL de regulación  con cristal Convexo de mano DERECHA Térmico Negro;Marca: Alfa Romeo Modelo: 147Espejo retrovisor CRISTAL de regulación  con cristal Convexo de mano DERECHA Térmico Negro;;;;1;;;1;http://www.2automocion.com/fotos/670135.jpg;;;;;1;1;1;;;1;;;2001;2014;;2;;1;1;Térmico Negro
;1;670134;7,96;19,84;;;1;;;;;670134;;;;;;;;;;1;9;;;;;;<li>Marca: Alfa Romeo </li><li>Modelo: 147 </li> <li>Fecha: (2001 - 2014 ) </li>  <li>Espejo retrovisor CRISTAL de regulación  con cristal Asférico de mano IZQUIERDA Térmico Negro</li></ul>;<li>Marca: Alfa Romeo </li><li>Modelo: 147 </li> <li>Fecha: (2001 - 2014 ) </li>  <li>Espejo retrovisor CRISTAL de regulación  con cristal Asférico de mano IZQUIERDA Térmico Negro</li></ul>;Marca: Alfa Romeo, Modelo: 147,Espejo retrovisor CRISTAL, de regulación , con cristal Asférico, de mano IZQUIERDA, Térmico Negro;;Marca: Alfa Romeo Modelo: 147Espejo retrovisor CRISTAL de regulación  con cristal Asférico de mano IZQUIERDA Térmico Negro;Marca: Alfa Romeo Modelo: 147Espejo retrovisor CRISTAL de regulación  con cristal Asférico de mano IZQUIERDA Térmico Negro;;;;1;;;1;http://www.2automocion.com/fotos/670134.jpg;;;;;1;1;1;;;1;;;2001;2014;;2;;3;2;Térmico Negro
;1;634021;7,96;10,93;;;1;;;;;634021;;;;;;;;;;1;0;;;;;;<li>Marca: Alfa Romeo </li><li>Modelo: 147 </li> <li>Fecha: (2001 - 2014 ) </li>  <li>Espejo retrovisor CARCASA de regulación  con cristal  de mano DERECHA Imprimado</li></ul>;<li>Marca: Alfa Romeo </li><li>Modelo: 147 </li> <li>Fecha: (2001 - 2014 ) </li>  <li>Espejo retrovisor CARCASA de regulación  con cristal  de mano DERECHA Imprimado</li></ul>;Marca: Alfa Romeo, Modelo: 147,Espejo retrovisor CARCASA, de regulación , con cristal , de mano DERECHA, Imprimado;;Marca: Alfa Romeo Modelo: 147Espejo retrovisor CARCASA de regulación  con cristal  de mano DERECHA Imprimado;Marca: Alfa Romeo Modelo: 147Espejo retrovisor CARCASA de regulación  con cristal  de mano DERECHA Imprimado;;;;1;;;1;http://www.2automocion.com/fotos/634021.jpg;;;;;1;1;1;;;1;;;2001;2014;;3;;;1;Imprimado
;1;634022;7,96;10,93;;;1;;;;;634022;;;;;;;;;;1;0;;;;;;<li>Marca: Alfa Romeo </li><li>Modelo: 147 </li> <li>Fecha: (2001 - 2014 ) </li>  <li>Espejo retrovisor CARCASA de regulación  con cristal  de mano IZQUIERDA Imprimado</li></ul>;<li>Marca: Alfa Romeo </li><li>Modelo: 147 </li> <li>Fecha: (2001 - 2014 ) </li>  <li>Espejo retrovisor CARCASA de regulación  con cristal  de mano IZQUIERDA Imprimado</li></ul>;Marca: Alfa Romeo, Modelo: 147,Espejo retrovisor CARCASA, de regulación , con cristal , de mano IZQUIERDA, Imprimado;;Marca: Alfa Romeo Modelo: 147Espejo retrovisor CARCASA de regulación  con cristal  de mano IZQUIERDA Imprimado;Marca: Alfa Romeo Modelo: 147Espejo retrovisor CARCASA de regulación  con cristal  de mano IZQUIERDA Imprimado;;;;1;;;1;http://www.2automocion.com/fotos/634022.jpg;;;;;1;1;1;;;1;;;2001;2014;;3;;;2;Imprimado
;1;934005;7,92;45,15;;;1;;;;;934005;;;;;;;;;;1;3;;;;;;<li>Marca: Alfa Romeo </li><li>Modelo: 156 </li> <li>Fecha: (1998 - 2014 ) </li>  <li>Espejo retrovisor COMPLETO de regulación Eléctrica con cristal Convexo Azul de mano DERECHA Térmico Negro Sensor de Temperatura</li></ul>;<li>Marca: Alfa Romeo </li><li>Modelo: 156 </li> <li>Fecha: (1998 - 2014 ) </li>  <li>Espejo retrovisor COMPLETO de regulación Eléctrica con cristal Convexo Azul de mano DERECHA Térmico Negro Sensor de Temperatura</li></ul>;Marca: Alfa Romeo, Modelo: 156,Espejo retrovisor COMPLETO, de regulación Eléctrica, con cristal Convexo Azul, de mano DERECHA, Térmico Negro Sensor de Temperatura;;Marca: Alfa Romeo Modelo: 156Espejo retrovisor COMPLETO de regulación Eléctrica con cristal Convexo Azul de mano DERECHA Térmico Negro Sensor de Temperatura;Marca: Alfa Romeo Modelo: 156Espejo retrovisor COMPLETO de regulación Eléctrica con cristal Convexo Azul de mano DERECHA Térmico Negro Sensor de Temperatura;;;;1;;;1;http://www.2automocion.com/fotos/934005.jpg;;;;;1;1;1;;;1;;;1998;2014;;1;1;;1;Térmico Negro Sensor de Temperatura
;1;934006;7,92;35;;;1;;;;;934006;;;;;;;;;;1;5;;;;;;<li>Marca: Alfa Romeo </li><li>Modelo: 156 </li> <li>Fecha: (1998 - 2014 ) </li>  <li>Espejo retrovisor COMPLETO de regulación Eléctrica con cristal Plano Azul de mano IZQUIERDA Térmico Negro</li></ul>;<li>Marca: Alfa Romeo </li><li>Modelo: 156 </li> <li>Fecha: (1998 - 2014 ) </li>  <li>Espejo retrovisor COMPLETO de regulación Eléctrica con cristal Plano Azul de mano IZQUIERDA Térmico Negro</li></ul>;Marca: Alfa Romeo, Modelo: 156,Espejo retrovisor COMPLETO, de regulación Eléctrica, con cristal Plano Azul, de mano IZQUIERDA, Térmico Negro;;Marca: Alfa Romeo Modelo: 156Espejo retrovisor COMPLETO de regulación Eléctrica con cristal Plano Azul de mano IZQUIERDA Térmico Negro;Marca: Alfa Romeo Modelo: 156Espejo retrovisor COMPLETO de regulación Eléctrica con cristal Plano Azul de mano IZQUIERDA Térmico Negro;;;;1;;;1;http://www.2automocion.com/fotos/934006.jpg;;;;;1;1;1;;;1;;;1998;2014;;1;1;;2;Térmico Negro
;1;934009;7,92;50,78;;;1;;;;;934009;;;;;;;;;;1;0;;;;;;<li>Marca: Alfa Romeo </li><li>Modelo: 156 </li> <li>Fecha: (1998 - 2014 ) </li>  <li>Espejo retrovisor COMPLETO de regulación Eléctrica con cristal Convexo Azul de mano DERECHA Térmico Imprimado Sensor de Temperatura</li></ul>;<li>Marca: Alfa Romeo </li><li>Modelo: 156 </li> <li>Fecha: (1998 - 2014 ) </li>  <li>Espejo retrovisor COMPLETO de regulación Eléctrica con cristal Convexo Azul de mano DERECHA Térmico Imprimado Sensor de Temperatura</li></ul>;Marca: Alfa Romeo, Modelo: 156,Espejo retrovisor COMPLETO, de regulación Eléctrica, con cristal Convexo Azul, de mano DERECHA, Térmico Imprimado Sensor de Temperatura;;Marca: Alfa Romeo Modelo: 156Espejo retrovisor COMPLETO de regulación Eléctrica con cristal Convexo Azul de mano DERECHA Térmico Imprimado Sensor de Temperatura;Marca: Alfa Romeo Modelo: 156Espejo retrovisor COMPLETO de regulación Eléctrica con cristal Convexo Azul de mano DERECHA Térmico Imprimado Sensor de Temperatura;;;;1;;;1;http://www.2automocion.com/fotos/934009.jpg;;;;;1;1;1;;;1;;;1998;2014;;1;1;;1;Térmico Imprimado Sensor de Temperatura
;1;934010;7,92;45,15;;;1;;;;;934010;;;;;;;;;;1;2;;;;;;<li>Marca: Alfa Romeo </li><li>Modelo: 156 </li> <li>Fecha: (1998 - 2014 ) </li>  <li>Espejo retrovisor COMPLETO de regulación Eléctrica con cristal Plano Azul de mano IZQUIERDA Térmico Imprimado</li></ul>;<li>Marca: Alfa Romeo </li><li>Modelo: 156 </li> <li>Fecha: (1998 - 2014 ) </li>  <li>Espejo retrovisor COMPLETO de regulación Eléctrica con cristal Plano Azul de mano IZQUIERDA Térmico Imprimado</li></ul>;Marca: Alfa Romeo, Modelo: 156,Espejo retrovisor COMPLETO, de regulación Eléctrica, con cristal Plano Azul, de mano IZQUIERDA, Térmico Imprimado;;Marca: Alfa Romeo Modelo: 156Espejo retrovisor COMPLETO de regulación Eléctrica con cristal Plano Azul de mano IZQUIERDA Térmico Imprimado;Marca: Alfa Romeo Modelo: 156Espejo retrovisor COMPLETO de regulación Eléctrica con cristal Plano Azul de mano IZQUIERDA Térmico Imprimado;;;;1;;;1;http://www.2automocion.com/fotos/934010.jpg;;;;;1;1;1;;;1;;;1998;2014;;1;1;;2;Térmico Imprimado
;1;670133;7,92;13,75;;;1;;;;;670133;;;;;;;;;;1;5;;;;;;<li>Marca: Alfa Romeo </li><li>Modelo: 156 </li> <li>Fecha: (1998 - 2014 ) </li>  <li>Espejo retrovisor CRISTAL de regulación  con cristal Convexo de mano DERECHA Térmico Negro</li></ul>;<li>Marca: Alfa Romeo </li><li>Modelo: 156 </li> <li>Fecha: (1998 - 2014 ) </li>  <li>Espejo retrovisor CRISTAL de regulación  con cristal Convexo de mano DERECHA Térmico Negro</li></ul>;Marca: Alfa Romeo, Modelo: 156,Espejo retrovisor CRISTAL, de regulación , con cristal Convexo, de mano DERECHA, Térmico Negro;;Marca: Alfa Romeo Modelo: 156Espejo retrovisor CRISTAL de regulación  con cristal Convexo de mano DERECHA Térmico Negro;Marca: Alfa Romeo Modelo: 156Espejo retrovisor CRISTAL de regulación  con cristal Convexo de mano DERECHA Térmico Negro;;;;1;;;1;http://www.2automocion.com/fotos/670133.jpg;;;;;1;1;1;;;1;;;1998;2014;;2;;1;1;Térmico Negro
;1;670132;7,92;13,75;;;1;;;;;670132;;;;;;;;;;1;6;;;;;;<li>Marca: Alfa Romeo </li><li>Modelo: 156 </li> <li>Fecha: (1998 - 2014 ) </li>  <li>Espejo retrovisor CRISTAL de regulación  con cristal Convexo de mano IZQUIERDA Térmico Negro</li></ul>;<li>Marca: Alfa Romeo </li><li>Modelo: 156 </li> <li>Fecha: (1998 - 2014 ) </li>  <li>Espejo retrovisor CRISTAL de regulación  con cristal Convexo de mano IZQUIERDA Térmico Negro</li></ul>;Marca: Alfa Romeo, Modelo: 156,Espejo retrovisor CRISTAL, de regulación , con cristal Convexo, de mano IZQUIERDA, Térmico Negro;;Marca: Alfa Romeo Modelo: 156Espejo retrovisor CRISTAL de regulación  con cristal Convexo de mano IZQUIERDA Térmico Negro;Marca: Alfa Romeo Modelo: 156Espejo retrovisor CRISTAL de regulación  con cristal Convexo de mano IZQUIERDA Térmico Negro;;;;1;;;1;http://www.2automocion.com/fotos/670132.jpg;;;;;1;1;1;;;1;;;1998;2014;;2;;1;2;Térmico Negro
;1;934024;7,93;67,03;;;1;;;;;934024;;;;;;;;;;1;0;;;;;;<li>Marca: Alfa Romeo </li><li>Modelo: 159 </li> <li>Fecha: (2006 - 2014 ) </li>  <li>Espejo retrovisor COMPLETO de regulación Eléctrica con cristal Convexo Azul de mano DERECHA Térmico Negro</li></ul>;<li>Marca: Alfa Romeo </li><li>Modelo: 159 </li> <li>Fecha: (2006 - 2014 ) </li>  <li>Espejo retrovisor COMPLETO de regulación Eléctrica con cristal Convexo Azul de mano DERECHA Térmico Negro</li></ul>;Marca: Alfa Romeo, Modelo: 159,Espejo retrovisor COMPLETO, de regulación Eléctrica, con cristal Convexo Azul, de mano DERECHA, Térmico Negro;;Marca: Alfa Romeo Modelo: 159Espejo retrovisor COMPLETO de regulación Eléctrica con cristal Convexo Azul de mano DERECHA Térmico Negro;Marca: Alfa Romeo Modelo: 159Espejo retrovisor COMPLETO de regulación Eléctrica con cristal Convexo Azul de mano DERECHA Térmico Negro;;;;1;;;1;http://www.2automocion.com/fotos/934024.jpg;;;;;1;1;1;;;1;;;2006;2014;;1;1;;1;Térmico Negro
;1;934025;7,93;69,06;;;1;;;;;934025;;;;;;;;;;1;3;;;;;;<li>Marca: Alfa Romeo </li><li>Modelo: 159 </li> <li>Fecha: (2006 - 2014 ) </li>  <li>Espejo retrovisor COMPLETO de regulación Eléctrica con cristal Convexo Azul de mano IZQUIERDA Térmico Negro Sensor de Temperatura</li></ul>;<li>Marca: Alfa Romeo </li><li>Modelo: 159 </li> <li>Fecha: (2006 - 2014 ) </li>  <li>Espejo retrovisor COMPLETO de regulación Eléctrica con cristal Convexo Azul de mano IZQUIERDA Térmico Negro Sensor de Temperatura</li></ul>;Marca: Alfa Romeo, Modelo: 159,Espejo retrovisor COMPLETO, de regulación Eléctrica, con cristal Convexo Azul, de mano IZQUIERDA, Térmico Negro Sensor de Temperatura;;Marca: Alfa Romeo Modelo: 159Espejo retrovisor COMPLETO de regulación Eléctrica con cristal Convexo Azul de mano IZQUIERDA Térmico Negro Sensor de Temperatura;Marca: Alfa Romeo Modelo: 159Espejo retrovisor COMPLETO de regulación Eléctrica con cristal Convexo Azul de mano IZQUIERDA Térmico Negro Sensor de Temperatura;;;;1;;;1;http://www.2automocion.com/fotos/934025.jpg;;;;;1;1;1;;;1;;;2006;2014;;1;1;;2;Térmico Negro Sensor de Temperatura
;1;934026;7,93;67,03;;;1;;;;;934026;;;;;;;;;;1;0;;;;;;<li>Marca: Alfa Romeo </li><li>Modelo: 159 </li> <li>Fecha: (2006 - 2014 ) </li>  <li>Espejo retrovisor COMPLETO de regulación Eléctrica con cristal Convexo Azul de mano DERECHA Térmico Imprimado</li></ul>;<li>Marca: Alfa Romeo </li><li>Modelo: 159 </li> <li>Fecha: (2006 - 2014 ) </li>  <li>Espejo retrovisor COMPLETO de regulación Eléctrica con cristal Convexo Azul de mano DERECHA Térmico Imprimado</li></ul>;Marca: Alfa Romeo, Modelo: 159,Espejo retrovisor COMPLETO, de regulación Eléctrica, con cristal Convexo Azul, de mano DERECHA, Térmico Imprimado;;Marca: Alfa Romeo Modelo: 159Espejo retrovisor COMPLETO de regulación Eléctrica con cristal Convexo Azul de mano DERECHA Térmico Imprimado;Marca: Alfa Romeo Modelo: 159Espejo retrovisor COMPLETO de regulación Eléctrica con cristal Convexo Azul de mano DERECHA Térmico Imprimado;;;;1;;;1;http://www.2automocion.com/fotos/934026.jpg;;;;;1;1;1;;;1;;;2006;2014;;1;1;;1;Térmico Imprimado
;1;934027;7,93;69,06;;;1;;;;;934027;;;;;;;;;;1;0;;;;;;<li>Marca: Alfa Romeo </li><li>Modelo: 159 </li> <li>Fecha: (2006 - 2014 ) </li>  <li>Espejo retrovisor COMPLETO de regulación Eléctrica con cristal Convexo Azul de mano IZQUIERDA Térmico Imprimado Sensor de Temperatura</li></ul>;<li>Marca: Alfa Romeo </li><li>Modelo: 159 </li> <li>Fecha: (2006 - 2014 ) </li>  <li>Espejo retrovisor COMPLETO de regulación Eléctrica con cristal Convexo Azul de mano IZQUIERDA Térmico Imprimado Sensor de Temperatura</li></ul>;Marca: Alfa Romeo, Modelo: 159,Espejo retrovisor COMPLETO, de regulación Eléctrica, con cristal Convexo Azul, de mano IZQUIERDA, Térmico Imprimado Sensor de Temperatura;;Marca: Alfa Romeo Modelo: 159Espejo retrovisor COMPLETO de regulación Eléctrica con cristal Convexo Azul de mano IZQUIERDA Térmico Imprimado Sensor de Temperatura;Marca: Alfa Romeo Modelo: 159Espejo retrovisor COMPLETO de regulación Eléctrica con cristal Convexo Azul de mano IZQUIERDA Térmico Imprimado Sensor de Temperatura;;;;1;;;1;http://www.2automocion.com/fotos/934027.jpg;;;;;1;1;1;;;1;;;2006;2014;;1;1;;2;Térmico Imprimado Sensor de Temperatura
;1;934028;7,93;69,06;;;1;;;;;934028;;;;;;;;;;1;0;;;;;;<li>Marca: Alfa Romeo </li><li>Modelo: 159 </li> <li>Fecha: (2006 - 2014 ) </li>  <li>Espejo retrovisor COMPLETO de regulación Eléctrica con cristal Asférico Azul de mano IZQUIERDA Térmico Imprimado Sensor de Temperatura</li></ul>;<li>Marca: Alfa Romeo </li><li>Modelo: 159 </li> <li>Fecha: (2006 - 2014 ) </li>  <li>Espejo retrovisor COMPLETO de regulación Eléctrica con cristal Asférico Azul de mano IZQUIERDA Térmico Imprimado Sensor de Temperatura</li></ul>;Marca: Alfa Romeo, Modelo: 159,Espejo retrovisor COMPLETO, de regulación Eléctrica, con cristal Asférico Azul, de mano IZQUIERDA, Térmico Imprimado Sensor de Temperatura;;Marca: Alfa Romeo Modelo: 159Espejo retrovisor COMPLETO de regulación Eléctrica con cristal Asférico Azul de mano IZQUIERDA Térmico Imprimado Sensor de Temperatura;Marca: Alfa Romeo Modelo: 159Espejo retrovisor COMPLETO de regulación Eléctrica con cristal Asférico Azul de mano IZQUIERDA Térmico Imprimado Sensor de Temperatura;;;;1;;;1;http://www.2automocion.com/fotos/934028.jpg;;;;;1;1;1;;;1;;;2006;2014;;1;1;;2;Térmico Imprimado Sensor de Temperatura
;1;934029;7,93;90,15;;;1;;;;;934029;;;;;;;;;;1;0;;;;;;<li>Marca: Alfa Romeo </li><li>Modelo: 159 </li> <li>Fecha: (2006 - 2014 ) </li>  <li>Espejo retrovisor COMPLETO de regulación Eléctrica con cristal Convexo Azul de mano DERECHA Térmico Imprimado  Abatible Electrónicamente</li></ul>;<li>Marca: Alfa Romeo </li><li>Modelo: 159 </li> <li>Fecha: (2006 - 2014 ) </li>  <li>Espejo retrovisor COMPLETO de regulación Eléctrica con cristal Convexo Azul de mano DERECHA Térmico Imprimado  Abatible Electrónicamente</li></ul>;Marca: Alfa Romeo, Modelo: 159,Espejo retrovisor COMPLETO, de regulación Eléctrica, con cristal Convexo Azul, de mano DERECHA, Térmico Imprimado  Abatible Electrónicamente;;Marca: Alfa Romeo Modelo: 159Espejo retrovisor COMPLETO de regulación Eléctrica con cristal Convexo Azul de mano DERECHA Térmico Imprimado  Abatible Electrónicamente;Marca: Alfa Romeo Modelo: 159Espejo retrovisor COMPLETO de regulación Eléctrica con cristal Convexo Azul de mano DERECHA Térmico Imprimado  Abatible Electrónicamente;;;;1;;;1;http://www.2automocion.com/fotos/934029.jpg;;;;;1;1;1;;;1;;;2006;2014;;1;1;;1;Térmico Imprimado  Abatible Electrónicamente
;1;934030;7,93;90,15;;;1;;;;;934030;;;;;;;;;;1;0;;;;;;<li>Marca: Alfa Romeo </li><li>Modelo: 159 </li> <li>Fecha: (2006 - 2014 ) </li>  <li>Espejo retrovisor COMPLETO de regulación Eléctrica con cristal Convexo Azul de mano IZQUIERDA Térmico Imprimado Sensor de Temperatura Abatible Electrónicamente</li></ul>;<li>Marca: Alfa Romeo </li><li>Modelo: 159 </li> <li>Fecha: (2006 - 2014 ) </li>  <li>Espejo retrovisor COMPLETO de regulación Eléctrica con cristal Convexo Azul de mano IZQUIERDA Térmico Imprimado Sensor de Temperatura Abatible Electrónicamente</li></ul>;Marca: Alfa Romeo, Modelo: 159,Espejo retrovisor COMPLETO, de regulación Eléctrica, con cristal Convexo Azul, de mano IZQUIERDA, Térmico Imprimado Sensor de Temperatura Abatible Electrónicamente;;Marca: Alfa Romeo Modelo: 159Espejo retrovisor COMPLETO de regulación Eléctrica con cristal Convexo Azul de mano IZQUIERDA Térmico Imprimado Sensor de Temperatura Abatible Electrónicamente;Marca: Alfa Romeo Modelo: 159Espejo retrovisor COMPLETO de regulación Eléctrica con cristal Convexo Azul de mano IZQUIERDA Térmico Imprimado Sensor de Temperatura Abatible Electrónicamente;;;;1;;;1;http://www.2automocion.com/fotos/934030.jpg;;;;;1;1;1;;;1;;;2006;2014;;1;1;;2;Térmico Imprimado Sensor de Temperatura Abatible Electrónicamente
;1;934031;7,93;91,4;;;1;;;;;934031;;;;;;;;;;1;0;;;;;;<li>Marca: Alfa Romeo </li><li>Modelo: 159 </li> <li>Fecha: (2006 - 2014 ) </li>  <li>Espejo retrovisor COMPLETO de regulación Eléctrica con cristal Asférico Azul de mano IZQUIERDA Térmico Imprimado Sensor de Temperatura Abatible Electrónicamente</li></ul>;<li>Marca: Alfa Romeo </li><li>Modelo: 159 </li> <li>Fecha: (2006 - 2014 ) </li>  <li>Espejo retrovisor COMPLETO de regulación Eléctrica con cristal Asférico Azul de mano IZQUIERDA Térmico Imprimado Sensor de Temperatura Abatible Electrónicamente</li></ul>;Marca: Alfa Romeo, Modelo: 159,Espejo retrovisor COMPLETO, de regulación Eléctrica, con cristal Asférico Azul, de mano IZQUIERDA, Térmico Imprimado Sensor de Temperatura Abatible Electrónicamente;;Marca: Alfa Romeo Modelo: 159Espejo retrovisor COMPLETO de regulación Eléctrica con cristal Asférico Azul de mano IZQUIERDA Térmico Imprimado Sensor de Temperatura Abatible Electrónicamente;Marca: Alfa Romeo Modelo: 159Espejo retrovisor COMPLETO de regulación Eléctrica con cristal Asférico Azul de mano IZQUIERDA Térmico Imprimado Sensor de Temperatura Abatible Electrónicamente;;;;1;;;1;http://www.2automocion.com/fotos/934031.jpg;;;;;1;1;1;;;1;;;2006;2014;;1;1;;2;Térmico Imprimado Sensor de Temperatura Abatible Electrónicamente
;1;670462;7,93;13,75;;;1;;;;;670462;;;;;;;;;;1;0;;;;;;<li>Marca: Alfa Romeo </li><li>Modelo: 159 </li> <li>Fecha: (2006 - 2014 ) </li>  <li>Espejo retrovisor CRISTAL de regulación  con cristal Convexo de mano DERECHA Térmico Negro</li></ul>;<li>Marca: Alfa Romeo </li><li>Modelo: 159 </li> <li>Fecha: (2006 - 2014 ) </li>  <li>Espejo retrovisor CRISTAL de regulación  con cristal Convexo de mano DERECHA Térmico Negro</li></ul>;Marca: Alfa Romeo, Modelo: 159,Espejo retrovisor CRISTAL, de regulación , con cristal Convexo, de mano DERECHA, Térmico Negro;;Marca: Alfa Romeo Modelo: 159Espejo retrovisor CRISTAL de regulación  con cristal Convexo de mano DERECHA Térmico Negro;Marca: Alfa Romeo Modelo: 159Espejo retrovisor CRISTAL de regulación  con cristal Convexo de mano DERECHA Térmico Negro;;;;1;;;1;http://www.2automocion.com/fotos/670462.jpg;;;;;1;1;1;;;1;;;2006;2014;;2;;1;1;Térmico Negro
;1;670461;7,93;13,75;;;1;;;;;670461;;;;;;;;;;1;0;;;;;;<li>Marca: Alfa Romeo </li><li>Modelo: 159 </li> <li>Fecha: (2006 - 2014 ) </li>  <li>Espejo retrovisor CRISTAL de regulación  con cristal Convexo de mano IZQUIERDA Térmico Negro</li></ul>;<li>Marca: Alfa Romeo </li><li>Modelo: 159 </li> <li>Fecha: (2006 - 2014 ) </li>  <li>Espejo retrovisor CRISTAL de regulación  con cristal Convexo de mano IZQUIERDA Térmico Negro</li></ul>;Marca: Alfa Romeo, Modelo: 159,Espejo retrovisor CRISTAL, de regulación , con cristal Convexo, de mano IZQUIERDA, Térmico Negro;;Marca: Alfa Romeo Modelo: 159Espejo retrovisor CRISTAL de regulación  con cristal Convexo de mano IZQUIERDA Térmico Negro;Marca: Alfa Romeo Modelo: 159Espejo retrovisor CRISTAL de regulación  con cristal Convexo de mano IZQUIERDA Térmico Negro;;;;1;;;1;http://www.2automocion.com/fotos/670461.jpg;;;;;1;1;1;;;1;;;2006;2014;;2;;1;2;Térmico Negro
;1;634029;7,93;11,09;;;1;;;;;634029;;;;;;;;;;1;0;;;;;;<li>Marca: Alfa Romeo </li><li>Modelo: 159 </li> <li>Fecha: (2006 - 2014 ) </li>  <li>Espejo retrovisor CARCASA de regulación  con cristal  de mano DERECHA Imprimado</li></ul>;<li>Marca: Alfa Romeo </li><li>Modelo: 159 </li> <li>Fecha: (2006 - 2014 ) </li>  <li>Espejo retrovisor CARCASA de regulación  con cristal  de mano DERECHA Imprimado</li></ul>;Marca: Alfa Romeo, Modelo: 159,Espejo retrovisor CARCASA, de regulación , con cristal , de mano DERECHA, Imprimado;;Marca: Alfa Romeo Modelo: 159Espejo retrovisor CARCASA de regulación  con cristal  de mano DERECHA Imprimado;Marca: Alfa Romeo Modelo: 159Espejo retrovisor CARCASA de regulación  con cristal  de mano DERECHA Imprimado;;;;1;;;1;http://www.2automocion.com/fotos/634029.jpg;;;;;1;1;1;;;1;;;2006;2014;;3;;;1;Imprimado
;1;634030;7,93;11,09;;;1;;;;;634030;;;;;;;;;;1;0;;;;;;<li>Marca: Alfa Romeo </li><li>Modelo: 159 </li> <li>Fecha: (2006 - 2014 ) </li>  <li>Espejo retrovisor CARCASA de regulación  con cristal  de mano IZQUIERDA Imprimado</li></ul>;<li>Marca: Alfa Romeo </li><li>Modelo: 159 </li> <li>Fecha: (2006 - 2014 ) </li>  <li>Espejo retrovisor CARCASA de regulación  con cristal  de mano IZQUIERDA Imprimado</li></ul>;Marca: Alfa Romeo, Modelo: 159,Espejo retrovisor CARCASA, de regulación , con cristal , de mano IZQUIERDA, Imprimado;;Marca: Alfa Romeo Modelo: 159Espejo retrovisor CARCASA de regulación  con cristal  de mano IZQUIERDA Imprimado;Marca: Alfa Romeo Modelo: 159Espejo retrovisor CARCASA de regulación  con cristal  de mano IZQUIERDA Imprimado;;;;1;;;1;http://www.2automocion.com/fotos/634030.jpg;;;;;1;1;1;;;1;;;2006;2014;;3;;;2;Imprimado
;1;934032;7,109;77,5;;;1;;;;;934032;;;;;;;;;;1;1;;;;;;<li>Marca: Alfa Romeo </li><li>Modelo: Mito </li> <li>Fecha: (2008 - 2014 ) </li>  <li>Espejo retrovisor COMPLETO de regulación Eléctrica con cristal Convexo Azul de mano DERECHA Térmico Imprimado Sensor de Temperatura</li></ul>;<li>Marca: Alfa Romeo </li><li>Modelo: Mito </li> <li>Fecha: (2008 - 2014 ) </li>  <li>Espejo retrovisor COMPLETO de regulación Eléctrica con cristal Convexo Azul de mano DERECHA Térmico Imprimado Sensor de Temperatura</li></ul>;Marca: Alfa Romeo, Modelo: Mito,Espejo retrovisor COMPLETO, de regulación Eléctrica, con cristal Convexo Azul, de mano DERECHA, Térmico Imprimado Sensor de Temperatura;;Marca: Alfa Romeo Modelo: MitoEspejo retrovisor COMPLETO de regulación Eléctrica con cristal Convexo Azul de mano DERECHA Térmico Imprimado Sensor de Temperatura;Marca: Alfa Romeo Modelo: MitoEspejo retrovisor COMPLETO de regulación Eléctrica con cristal Convexo Azul de mano DERECHA Térmico Imprimado Sensor de Temperatura;;;;1;;;1;http://www.2automocion.com/fotos/934032.jpg;;;;;1;1;1;;;1;;;2008;2014;;1;1;;1;Térmico Imprimado Sensor de Temperatura
;1;934033;7,109;73,12;;;1;;;;;934033;;;;;;;;;;1;2;;;;;;<li>Marca: Alfa Romeo </li><li>Modelo: Mito </li> <li>Fecha: (2008 - 2014 ) </li>  <li>Espejo retrovisor COMPLETO de regulación Eléctrica con cristal Asférico Azul de mano IZQUIERDA Térmico Imprimado</li></ul>;<li>Marca: Alfa Romeo </li><li>Modelo: Mito </li> <li>Fecha: (2008 - 2014 ) </li>  <li>Espejo retrovisor COMPLETO de regulación Eléctrica con cristal Asférico Azul de mano IZQUIERDA Térmico Imprimado</li></ul>;Marca: Alfa Romeo, Modelo: Mito,Espejo retrovisor COMPLETO, de regulación Eléctrica, con cristal Asférico Azul, de mano IZQUIERDA, Térmico Imprimado;;Marca: Alfa Romeo Modelo: MitoEspejo retrovisor COMPLETO de regulación Eléctrica con cristal Asférico Azul de mano IZQUIERDA Térmico Imprimado;Marca: Alfa Romeo Modelo: MitoEspejo retrovisor COMPLETO de regulación Eléctrica con cristal Asférico Azul de mano IZQUIERDA Térmico Imprimado;;;;1;;;1;http://www.2automocion.com/fotos/934033.jpg;;;;;1;1;1;;;1;;;2008;2014;;1;1;;2;Térmico Imprimado
;1;934034;7,109;100,9;;;1;;;;;934034;;;;;;;;;;1;2;;;;;;<li>Marca: Alfa Romeo </li><li>Modelo: Mito </li> <li>Fecha: (2008 - 2014 ) </li>  <li>Espejo retrovisor COMPLETO de regulación Eléctrica con cristal Convexo Azul de mano DERECHA Térmico Imprimado Sensor de Temperatura Abatible Electrónicamente</li></ul>;<li>Marca: Alfa Romeo </li><li>Modelo: Mito </li> <li>Fecha: (2008 - 2014 ) </li>  <li>Espejo retrovisor COMPLETO de regulación Eléctrica con cristal Convexo Azul de mano DERECHA Térmico Imprimado Sensor de Temperatura Abatible Electrónicamente</li></ul>;Marca: Alfa Romeo, Modelo: Mito,Espejo retrovisor COMPLETO, de regulación Eléctrica, con cristal Convexo Azul, de mano DERECHA, Térmico Imprimado Sensor de Temperatura Abatible Electrónicamente;;Marca: Alfa Romeo Modelo: MitoEspejo retrovisor COMPLETO de regulación Eléctrica con cristal Convexo Azul de mano DERECHA Térmico Imprimado Sensor de Temperatura Abatible Electrónicamente;Marca: Alfa Romeo Modelo: MitoEspejo retrovisor COMPLETO de regulación Eléctrica con cristal Convexo Azul de mano DERECHA Térmico Imprimado Sensor de Temperatura Abatible Electrónicamente;;;;1;;;1;http://www.2automocion.com/fotos/934034.jpg;;;;;1;1;1;;;1;;;2008;2014;;1;1;;1;Térmico Imprimado Sensor de Temperatura Abatible Electrónicamente
;1;934035;7,109;96,87;;;1;;;;;934035;;;;;;;;;;1;0;;;;;;<li>Marca: Alfa Romeo </li><li>Modelo: Mito </li> <li>Fecha: (2008 - 2014 ) </li>  <li>Espejo retrovisor COMPLETO de regulación Eléctrica con cristal Asférico Azul de mano IZQUIERDA Térmico Imprimado  Abatible Electrónicamente</li></ul>;<li>Marca: Alfa Romeo </li><li>Modelo: Mito </li> <li>Fecha: (2008 - 2014 ) </li>  <li>Espejo retrovisor COMPLETO de regulación Eléctrica con cristal Asférico Azul de mano IZQUIERDA Térmico Imprimado  Abatible Electrónicamente</li></ul>;Marca: Alfa Romeo, Modelo: Mito,Espejo retrovisor COMPLETO, de regulación Eléctrica, con cristal Asférico Azul, de mano IZQUIERDA, Térmico Imprimado  Abatible Electrónicamente;;Marca: Alfa Romeo Modelo: MitoEspejo retrovisor COMPLETO de regulación Eléctrica con cristal Asférico Azul de mano IZQUIERDA Térmico Imprimado  Abatible Electrónicamente;Marca: Alfa Romeo Modelo: MitoEspejo retrovisor COMPLETO de regulación Eléctrica con cristal Asférico Azul de mano IZQUIERDA Térmico Imprimado  Abatible Electrónicamente;;;;1;;;1;http://www.2automocion.com/fotos/934035.jpg;;;;;1;1;1;;;1;;;2008;2014;;1;1;;2;Térmico Imprimado  Abatible Electrónicamente
;1;670462;7,109;13,75;;;1;;;;;670462;;;;;;;;;;1;0;;;;;;<li>Marca: Alfa Romeo </li><li>Modelo: Mito </li> <li>Fecha: (2008 - 2014 ) </li>  <li>Espejo retrovisor CRISTAL de regulación  con cristal Convexo de mano DERECHA Térmico Negro</li></ul>;<li>Marca: Alfa Romeo </li><li>Modelo: Mito </li> <li>Fecha: (2008 - 2014 ) </li>  <li>Espejo retrovisor CRISTAL de regulación  con cristal Convexo de mano DERECHA Térmico Negro</li></ul>;Marca: Alfa Romeo, Modelo: Mito,Espejo retrovisor CRISTAL, de regulación , con cristal Convexo, de mano DERECHA, Térmico Negro;;Marca: Alfa Romeo Modelo: MitoEspejo retrovisor CRISTAL de regulación  con cristal Convexo de mano DERECHA Térmico Negro;Marca: Alfa Romeo Modelo: MitoEspejo retrovisor CRISTAL de regulación  con cristal Convexo de mano DERECHA Térmico Negro;;;;1;;;1;http://www.2automocion.com/fotos/670462.jpg;;;;;1;1;1;;;1;;;2008;2014;;2;;1;1;Térmico Negro
;1;670461;7,109;13,75;;;1;;;;;670461;;;;;;;;;;1;0;;;;;;<li>Marca: Alfa Romeo </li><li>Modelo: Mito </li> <li>Fecha: (2008 - 2014 ) </li>  <li>Espejo retrovisor CRISTAL de regulación  con cristal Convexo de mano IZQUIERDA Térmico Negro</li></ul>;<li>Marca: Alfa Romeo </li><li>Modelo: Mito </li> <li>Fecha: (2008 - 2014 ) </li>  <li>Espejo retrovisor CRISTAL de regulación  con cristal Convexo de mano IZQUIERDA Térmico Negro</li></ul>;Marca: Alfa Romeo, Modelo: Mito,Espejo retrovisor CRISTAL, de regulación , con cristal Convexo, de mano IZQUIERDA, Térmico Negro;;Marca: Alfa Romeo Modelo: MitoEspejo retrovisor CRISTAL de regulación  con cristal Convexo de mano IZQUIERDA Térmico Negro;Marca: Alfa Romeo Modelo: MitoEspejo retrovisor CRISTAL de regulación  con cristal Convexo de mano IZQUIERDA Térmico Negro;;;;1;;;1;http://www.2automocion.com/fotos/670461.jpg;;;;;1;1;1;;;1;;;2008;2014;;2;;1;2;Térmico Negro
;1;634029;7,109;11,09;;;1;;;;;634029;;;;;;;;;;1;0;;;;;;<li>Marca: Alfa Romeo </li><li>Modelo: Mito </li> <li>Fecha: (2008 - 2014 ) </li>  <li>Espejo retrovisor CARCASA de regulación  con cristal  de mano DERECHA Imprimado</li></ul>;<li>Marca: Alfa Romeo </li><li>Modelo: Mito </li> <li>Fecha: (2008 - 2014 ) </li>  <li>Espejo retrovisor CARCASA de regulación  con cristal  de mano DERECHA Imprimado</li></ul>;Marca: Alfa Romeo, Modelo: Mito,Espejo retrovisor CARCASA, de regulación , con cristal , de mano DERECHA, Imprimado;;Marca: Alfa Romeo Modelo: MitoEspejo retrovisor CARCASA de regulación  con cristal  de mano DERECHA Imprimado;Marca: Alfa Romeo Modelo: MitoEspejo retrovisor CARCASA de regulación  con cristal  de mano DERECHA Imprimado;;;;1;;;1;http://www.2automocion.com/fotos/634029.jpg;;;;;1;1;1;;;1;;;2008;2014;;3;;;1;Imprimado
;1;634030;7,109;11,09;;;1;;;;;634030;;;;;;;;;;1;0;;;;;;<li>Marca: Alfa Romeo </li><li>Modelo: Mito </li> <li>Fecha: (2008 - 2014 ) </li>  <li>Espejo retrovisor CARCASA de regulación  con cristal  de mano IZQUIERDA Imprimado</li></ul>;<li>Marca: Alfa Romeo </li><li>Modelo: Mito </li> <li>Fecha: (2008 - 2014 ) </li>  <li>Espejo retrovisor CARCASA de regulación  con cristal  de mano IZQUIERDA Imprimado</li></ul>;Marca: Alfa Romeo, Modelo: Mito,Espejo retrovisor CARCASA, de regulación , con cristal , de mano IZQUIERDA, Imprimado;;Marca: Alfa Romeo Modelo: MitoEspejo retrovisor CARCASA de regulación  con cristal  de mano IZQUIERDA Imprimado;Marca: Alfa Romeo Modelo: MitoEspejo retrovisor CARCASA de regulación  con cristal  de mano IZQUIERDA Imprimado;;;;1;;;1;http://www.2automocion.com/fotos/934030.jpg;;;;;1;1;1;;;1;;;2008;2014;;3;;;2;Imprimado
