﻿"Id(no rellenar);Activo (0=No/1=No);Nombre;Categorias (x	y	""z...);Precio con Iva Incluido (PVP);Regla Impuestos (IVA) (1=21% 2=10% 3=4%);Precio mayorista;En venta 0=noO 1=si (0/1);Importe descuento;Descuento porcentual;Discount desde (yyyy-mm-dd);Discount hasta (yyyy-mm-dd);Referencia comercio;referencia proveedor;Proveedor;Fabricante;EAN13(código de barras);UPC;Ecotasa;ancho;alto;profundidad;Weight;Cantidad;Cantidad mínima;Visibilidad;Coste adicional envio;Unidad;ratio precio unitario;Descripción corta;Descripción larga;Tags (x""	y	""z...);meta_title;meta_keywords;meta_description;Enlace reescrito;Text cuando está en stock;Text when backorder allowed;Disponible para pedido (0 = No""	"" 1 = Yes);Fecha disponibilidad de producto;Fecha creación producto;Mostrar precio (0 = No""	"" 1 = Yes);Imagen URLs (x""	y	""z...);Borra imágenes existentes (0 = No""	"" 1 = Yes);Feature(Name:Value:Position);Disponible sólo online (0 = No""	"" 1 = Yes);Condición;Personalizabke (0 = No""	"" 1 = Yes);Uploadable files (0 = No""	"" 1 = Yes);Text fields (0 = No""	"" 1 = Yes);Out_of_stock;Advanced stock management;ID / Nombre de tiienda;carroceria;version;fecha_inicio;fecha_fin;puertas;despiece;regulacion;cristal;mano;caracteristicas"";;;;;;;;;;;;;;;;;;;;;;;;;;;;;;;;;;;;;;;;;;;;;;;;;;;;;;;;;;;;;;;;;;;;;;;;;;;;;;;;;;;;;;;;;;;;;;;;;;;;;;;;;;;;;;;;;;;;;;;;;;;;;;;;;;;;;;;;;;;;;;;;;;;;;;;;;;;;;;;;;;;;;;;;;;;;;;;;;;;;;;;;;;;;;;;;;;;;;;;;;;;;;;;;;;;;;;;;;;;;;;;;;;;;;;;;;;;;;;;;;;;;;;;;;;;;;;;;;;;;;;;;;;;;;;;;;;;;;;;;;;;;;;;;;;;;;;;;;;;;;;;;;;;;;;;;;;;;;;;;;;;;;;;;;;;;;;;;;;;;;;;;;;;;;;;;;;;;;;;;																																																														;;;;;;;;;;;;;;;;;;;;;;;;;;;;;;;;;;;;;;;;;;;;;;;;;;;;;;;;;;;;;;;;;;;;;;;;;;;;;;;;;;;;;;;;;;;;;;;;;;;;;;;;;;;;;;;;;;;;;;;;;;;;;;;;;;;;;;;;;;;;;;;;;;;;;;;;;;;;;;;;;;;;;;;;;;;;;;;;;;;;;;;;;;																																																														";;;;;;;;;;;;;;;;;;;;;;;;;;;;;;;;;;;;;;;;;;;;;;;;;;;;;;;;;;;;;;
;1;626061;;8,12;;;1;;;;;626061;;;;;;;;;;1;8;;;;;;<li>Marca: Nissan // Renault </li><li>Modelo: Kubistar // Kangoo </li> <li>Fecha: (2002 - 2008 ) </li> CARCASA   de mano DERECHA Negro</li></ul>;<li>Marca: Nissan // Renault </li><li>Modelo: Kubistar // Kangoo </li> <li>Fecha: (2002 - 2008 ) </li> CARCASA   de mano DERECHA Negro</li></ul>;Marca: Nissan // Renault, Modelo: Kubistar // Kangoo,Espejo retrovisor CARCASA, , , de mano DERECHA, Negro;;Marca: Nissan // Renault Modelo: Kubistar // KangooEspejo retrovisor CARCASA   de mano DERECHA Negro;Marca: Nissan // Renault Modelo: Kubistar // KangooEspejo retrovisor CARCASA   de mano DERECHA Negro;;;;1;;;1;http://www.2automocion.com/fotos/626061.jpg;;;;;1;1;1;;;1;;;2002;2008;;3;;;1;Negro
;1;626062;;8,12;;;1;;;;;626062;;;;;;;;;;1;3;;;;;;<li>Marca: Nissan // Renault </li><li>Modelo: Kubistar // Kangoo </li> <li>Fecha: (2002 - 2008 ) </li> CARCASA   de mano IZQUIERDA Negro</li></ul>;<li>Marca: Nissan // Renault </li><li>Modelo: Kubistar // Kangoo </li> <li>Fecha: (2002 - 2008 ) </li> CARCASA   de mano IZQUIERDA Negro</li></ul>;Marca: Nissan // Renault, Modelo: Kubistar // Kangoo,Espejo retrovisor CARCASA, , , de mano IZQUIERDA, Negro;;Marca: Nissan // Renault Modelo: Kubistar // KangooEspejo retrovisor CARCASA   de mano IZQUIERDA Negro;Marca: Nissan // Renault Modelo: Kubistar // KangooEspejo retrovisor CARCASA   de mano IZQUIERDA Negro;;;;1;;;1;http://www.2automocion.com/fotos/626062.jpg;;;;;1;1;1;;;1;;;2002;2008;;3;;;2;Negro
;1;626094;66;9,06;;;1;;;;;626094;;;;;;;;;;1;3;;;;;;<li>Marca: Renault </li><li>Modelo: Megane - Scenic </li> <li>Fecha: (2003 - 2008 ) </li> CARCASA   de mano DERECHA Negro</li></ul>;<li>Marca: Renault </li><li>Modelo: Megane - Scenic </li> <li>Fecha: (2003 - 2008 ) </li> CARCASA   de mano DERECHA Negro</li></ul>;Marca: Renault, Modelo: Megane - Scenic,Espejo retrovisor CARCASA, , , de mano DERECHA, Negro;;Marca: Renault Modelo: Megane - ScenicEspejo retrovisor CARCASA   de mano DERECHA Negro;Marca: Renault Modelo: Megane - ScenicEspejo retrovisor CARCASA   de mano DERECHA Negro;;;;1;;;1;http://www.2automocion.com/fotos/626094.jpg;;;;;1;1;1;;;1;;;2003;2008;;3;;;1;Negro
;1;626095;66;9,06;;;1;;;;;626095;;;;;;;;;;1;4;;;;;;<li>Marca: Renault </li><li>Modelo: Megane - Scenic </li> <li>Fecha: (2003 - 2008 ) </li> CARCASA   de mano IZQUIERDA Negro</li></ul>;<li>Marca: Renault </li><li>Modelo: Megane - Scenic </li> <li>Fecha: (2003 - 2008 ) </li> CARCASA   de mano IZQUIERDA Negro</li></ul>;Marca: Renault, Modelo: Megane - Scenic,Espejo retrovisor CARCASA, , , de mano IZQUIERDA, Negro;;Marca: Renault Modelo: Megane - ScenicEspejo retrovisor CARCASA   de mano IZQUIERDA Negro;Marca: Renault Modelo: Megane - ScenicEspejo retrovisor CARCASA   de mano IZQUIERDA Negro;;;;1;;;1;http://www.2automocion.com/fotos/626095.jpg;;;;;1;1;1;;;1;;;2003;2008;;3;;;2;Negro
;1;626096;66;9,37;;;1;;;;;626096;;;;;;;;;;1;10;;;;;;<li>Marca: Renault </li><li>Modelo: Megane - Scenic </li> <li>Fecha: (2003 - 2008 ) </li> CARCASA   de mano DERECHA Imprimado</li></ul>;<li>Marca: Renault </li><li>Modelo: Megane - Scenic </li> <li>Fecha: (2003 - 2008 ) </li> CARCASA   de mano DERECHA Imprimado</li></ul>;Marca: Renault, Modelo: Megane - Scenic,Espejo retrovisor CARCASA, , , de mano DERECHA, Imprimado;;Marca: Renault Modelo: Megane - ScenicEspejo retrovisor CARCASA   de mano DERECHA Imprimado;Marca: Renault Modelo: Megane - ScenicEspejo retrovisor CARCASA   de mano DERECHA Imprimado;;;;1;;;1;http://www.2automocion.com/fotos/626096.jpg;;;;;1;1;1;;;1;;;2003;2008;;3;;;1;Imprimado
;1;626097;66;9,37;;;1;;;;;626097;;;;;;;;;;1;15;;;;;;<li>Marca: Renault </li><li>Modelo: Megane - Scenic </li> <li>Fecha: (2003 - 2008 ) </li> CARCASA   de mano IZQUIERDA Imprimado</li></ul>;<li>Marca: Renault </li><li>Modelo: Megane - Scenic </li> <li>Fecha: (2003 - 2008 ) </li> CARCASA   de mano IZQUIERDA Imprimado</li></ul>;Marca: Renault, Modelo: Megane - Scenic,Espejo retrovisor CARCASA, , , de mano IZQUIERDA, Imprimado;;Marca: Renault Modelo: Megane - ScenicEspejo retrovisor CARCASA   de mano IZQUIERDA Imprimado;Marca: Renault Modelo: Megane - ScenicEspejo retrovisor CARCASA   de mano IZQUIERDA Imprimado;;;;1;;;1;http://www.2automocion.com/fotos/626097.jpg;;;;;1;1;1;;;1;;;2003;2008;;3;;;2;Imprimado
;1;628030;71;9,06;;;1;;;;;628030;;;;;;;;;;1;7;;;;;;<li>Marca: Seat </li><li>Modelo: Altea - Cordoba - Ibiza - Leon - Toledo </li> <li>Fecha: (2002 - 2008 ) </li> CARCASA   de mano DERECHA Imprimado</li></ul>;<li>Marca: Seat </li><li>Modelo: Altea - Cordoba - Ibiza - Leon - Toledo </li> <li>Fecha: (2002 - 2008 ) </li> CARCASA   de mano DERECHA Imprimado</li></ul>;Marca: Seat, Modelo: Altea - Cordoba - Ibiza - Leon - Toledo,Espejo retrovisor CARCASA, , , de mano DERECHA, Imprimado;;Marca: Seat Modelo: Altea - Cordoba - Ibiza - Leon - ToledoEspejo retrovisor CARCASA   de mano DERECHA Imprimado;Marca: Seat Modelo: Altea - Cordoba - Ibiza - Leon - ToledoEspejo retrovisor CARCASA   de mano DERECHA Imprimado;;;;1;;;1;http://www.2automocion.com/fotos/628030.jpg;;;;;1;1;1;;;1;;;2002;2008;;3;;;1;Imprimado
;1;628031;71;9,06;;;1;;;;;628031;;;;;;;;;;1;2;;;;;;<li>Marca: Seat </li><li>Modelo: Altea - Cordoba - Ibiza - Leon - Toledo </li> <li>Fecha: (2002 - 2008 ) </li> CARCASA   de mano IZQUIERDA Imprimado</li></ul>;<li>Marca: Seat </li><li>Modelo: Altea - Cordoba - Ibiza - Leon - Toledo </li> <li>Fecha: (2002 - 2008 ) </li> CARCASA   de mano IZQUIERDA Imprimado</li></ul>;Marca: Seat, Modelo: Altea - Cordoba - Ibiza - Leon - Toledo,Espejo retrovisor CARCASA, , , de mano IZQUIERDA, Imprimado;;Marca: Seat Modelo: Altea - Cordoba - Ibiza - Leon - ToledoEspejo retrovisor CARCASA   de mano IZQUIERDA Imprimado;Marca: Seat Modelo: Altea - Cordoba - Ibiza - Leon - ToledoEspejo retrovisor CARCASA   de mano IZQUIERDA Imprimado;;;;1;;;1;http://www.2automocion.com/fotos/628031.jpg;;;;;1;1;1;;;1;;;2002;2008;;3;;;2;Imprimado
;1;629017;;11,71;;;1;;;;;629017;;;;;;;;;;1;3;;;;;;<li>Marca: Skoda // Volkswagen </li><li>Modelo: Octavia // Polo </li> <li>Fecha: (2004 - 2009 ) </li> CARCASA   de mano DERECHA Imprimado</li></ul>;<li>Marca: Skoda // Volkswagen </li><li>Modelo: Octavia // Polo </li> <li>Fecha: (2004 - 2009 ) </li> CARCASA   de mano DERECHA Imprimado</li></ul>;Marca: Skoda // Volkswagen, Modelo: Octavia // Polo,Espejo retrovisor CARCASA, , , de mano DERECHA, Imprimado;;Marca: Skoda // Volkswagen Modelo: Octavia // PoloEspejo retrovisor CARCASA   de mano DERECHA Imprimado;Marca: Skoda // Volkswagen Modelo: Octavia // PoloEspejo retrovisor CARCASA   de mano DERECHA Imprimado;;;;1;;;1;http://www.2automocion.com/fotos/629017.jpg;;;;;1;1;1;;;1;;;2004;2009;;3;;;1;Imprimado
;1;629018;;11,71;;;1;;;;;629018;;;;;;;;;;1;3;;;;;;<li>Marca: Skoda // Volkswagen </li><li>Modelo: Octavia // Polo </li> <li>Fecha: (2004 - 2009 ) </li> CARCASA   de mano IZQUIERDA Imprimado</li></ul>;<li>Marca: Skoda // Volkswagen </li><li>Modelo: Octavia // Polo </li> <li>Fecha: (2004 - 2009 ) </li> CARCASA   de mano IZQUIERDA Imprimado</li></ul>;Marca: Skoda // Volkswagen, Modelo: Octavia // Polo,Espejo retrovisor CARCASA, , , de mano IZQUIERDA, Imprimado;;Marca: Skoda // Volkswagen Modelo: Octavia // PoloEspejo retrovisor CARCASA   de mano IZQUIERDA Imprimado;Marca: Skoda // Volkswagen Modelo: Octavia // PoloEspejo retrovisor CARCASA   de mano IZQUIERDA Imprimado;;;;1;;;1;http://www.2automocion.com/fotos/629017.jpg;;;;;1;1;1;;;1;;;2004;2009;;3;;;2;Imprimado
