﻿"Id(no rellenar);Activo (0=No/1=No);Nombre;Categorias (x	y	""z...);Precio con Iva Incluido (PVP);Regla Impuestos (IVA) (1=21% 2=10% 3=4%);Precio mayorista;En venta 0=noO 1=si (0/1);Importe descuento;Descuento porcentual;Discount desde (yyyy-mm-dd);Discount hasta (yyyy-mm-dd);Referencia comercio;referencia proveedor;Proveedor;Fabricante;EAN13(código de barras);UPC;Ecotasa;ancho;alto;profundidad;Weight;Cantidad;Cantidad mínima;Visibilidad;Coste adicional envio;Unidad;ratio precio unitario;Descripción corta;Descripción larga;Tags (x""	y	""z...);meta_title;meta_keywords;meta_description;Enlace reescrito;Text cuando está en stock;Text when backorder allowed;Disponible para pedido (0 = No""	"" 1 = Yes);Fecha disponibilidad de producto;Fecha creación producto;Mostrar precio (0 = No""	"" 1 = Yes);Imagen URLs (x""	y	""z...);Borra imágenes existentes (0 = No""	"" 1 = Yes);Feature(Name:Value:Position);Disponible sólo online (0 = No""	"" 1 = Yes);Condición;Personalizabke (0 = No""	"" 1 = Yes);Uploadable files (0 = No""	"" 1 = Yes);Text fields (0 = No""	"" 1 = Yes);Out_of_stock;Advanced stock management;ID / Nombre de tiienda;carroceria;version;fecha_inicio;fecha_fin;puertas;despiece;regulacion;cristal;mano;caracteristicas"";;;;;;;;;;;;;;;;;;;;;;;;;;;;;;;;;;;;;;;;;;;;;;;;;;;;;;;;;;;;;;;;;;;;;;;;;;;;;;;;;;;;;;;;;;;;;;;;;;;;;;;;;;;;;;;;;;;;;;;;;;;;;;;;;;;;;;;;;;;;;;;;;;;;;;;;;;;;;;;;;;;;;;;;;;;;;;;;;;;;;;;;;;;;;;;;;;;;;;;;;;;;;;;;;;;;;;;;;;;;;;;;;;;;;;;;;;;;;;;;;;;;;;;;;;;;;;;;;;;;;;;;;;;;;;;;;;;;;;;;;;;;;;;;;;;;;;;;;;;;;;;;;;;;;;;;;;;;;;;;;;;;;;;;;;;;;;;;;;;;;;;;;;;;;;;;;;;;;;;;																																																														;;;;;;;;;;;;;;;;;;;;;;;;;;;;;;;;;;;;;;;;;;;;;;;;;;;;;;;;;;;;;;;;;;;;;;;;;;;;;;;;;;;;;;;;;;;;;;;;;;;;;;;;;;;;;;;;;;;;;;;;;;;;;;;;;;;;;;;;;;;;;;;;;;;;;;;;;;;;;;;;;;;;;;;;;;;;;;;;;;;;;;;;;;																																																														";;;;;;;;;;;;;;;;;;;;;;;;;;;;;;;;;;;;;;;;;;;;;;;;;;;;;;;;;;;;;;
;1;670003;12;11,71;;;1;;;;;670003;;;;;;;;;;1;0;;;;;;<li>Marca: Audi </li><li>Modelo: A3 - A4 - A6 </li> <li>Fecha: (1996 - 2000 ) </li> CRISTAL  Convexo Azul de mano DERECHA Térmico Negro</li></ul>;<li>Marca: Audi </li><li>Modelo: A3 - A4 - A6 </li> <li>Fecha: (1996 - 2000 ) </li> CRISTAL  Convexo Azul de mano DERECHA Térmico Negro</li></ul>;Marca: Audi, Modelo: A3 - A4 - A6,Espejo retrovisor CRISTAL, , Convexo Azul, de mano DERECHA, Térmico Negro;;Marca: Audi Modelo: A3 - A4 - A6Espejo retrovisor CRISTAL  Convexo Azul de mano DERECHA Térmico Negro;Marca: Audi Modelo: A3 - A4 - A6Espejo retrovisor CRISTAL  Convexo Azul de mano DERECHA Térmico Negro;;;;1;;;1;http://www.2automocion.com/fotos/670003.jpg;;;;;1;1;1;;;1;;;1996;2000;;2;;;1;Térmico Negro
;1;670004;12;12,5;;;1;;;;;670004;;;;;;;;;;1;0;;;;;;<li>Marca: Audi </li><li>Modelo: A3 - A4 - A6 </li> <li>Fecha: (1996 - 2000 ) </li> CRISTAL  Asférico Azul de mano IZQUIERDA Térmico Negro</li></ul>;<li>Marca: Audi </li><li>Modelo: A3 - A4 - A6 </li> <li>Fecha: (1996 - 2000 ) </li> CRISTAL  Asférico Azul de mano IZQUIERDA Térmico Negro</li></ul>;Marca: Audi, Modelo: A3 - A4 - A6,Espejo retrovisor CRISTAL, , Asférico Azul, de mano IZQUIERDA, Térmico Negro;;Marca: Audi Modelo: A3 - A4 - A6Espejo retrovisor CRISTAL  Asférico Azul de mano IZQUIERDA Térmico Negro;Marca: Audi Modelo: A3 - A4 - A6Espejo retrovisor CRISTAL  Asférico Azul de mano IZQUIERDA Térmico Negro;;;;1;;;1;http://www.2automocion.com/fotos/670004.jpg;;;;;1;1;1;;;1;;;1996;2000;;2;;;2;Térmico Negro
;1;670005;12;10,85;;;1;;;;;670005;;;;;;;;;;1;2;;;;;;<li>Marca: Audi </li><li>Modelo: A3 - A4 - A6 </li> <li>Fecha: (1994 - 2000 ) </li> CRISTAL  Convexo Azul de mano DERECHA Negro</li></ul>;<li>Marca: Audi </li><li>Modelo: A3 - A4 - A6 </li> <li>Fecha: (1994 - 2000 ) </li> CRISTAL  Convexo Azul de mano DERECHA Negro</li></ul>;Marca: Audi, Modelo: A3 - A4 - A6,Espejo retrovisor CRISTAL, , Convexo Azul, de mano DERECHA, Negro;;Marca: Audi Modelo: A3 - A4 - A6Espejo retrovisor CRISTAL  Convexo Azul de mano DERECHA Negro;Marca: Audi Modelo: A3 - A4 - A6Espejo retrovisor CRISTAL  Convexo Azul de mano DERECHA Negro;;;;1;;;1;http://www.2automocion.com/fotos/670005.jpg;;;;;1;1;1;;;1;;;1994;2000;;2;;;1;Negro
;1;670006;12;12,5;;;1;;;;;670006;;;;;;;;;;1;5;;;;;;<li>Marca: Audi </li><li>Modelo: A3 - A4 - A6 </li> <li>Fecha: (1994 - 2000 ) </li> CRISTAL  Asférico Azul de mano IZQUIERDA Negro</li></ul>;<li>Marca: Audi </li><li>Modelo: A3 - A4 - A6 </li> <li>Fecha: (1994 - 2000 ) </li> CRISTAL  Asférico Azul de mano IZQUIERDA Negro</li></ul>;Marca: Audi, Modelo: A3 - A4 - A6,Espejo retrovisor CRISTAL, , Asférico Azul, de mano IZQUIERDA, Negro;;Marca: Audi Modelo: A3 - A4 - A6Espejo retrovisor CRISTAL  Asférico Azul de mano IZQUIERDA Negro;Marca: Audi Modelo: A3 - A4 - A6Espejo retrovisor CRISTAL  Asférico Azul de mano IZQUIERDA Negro;;;;1;;;1;http://www.2automocion.com/fotos/670006.jpg;;;;;1;1;1;;;1;;;1994;2000;;2;;;2;Negro
;1;670010;12;13,9;;;1;;;;;670010;;;;;;;;;;1;4;;;;;;<li>Marca: Audi </li><li>Modelo: A3 - A4 - A6 </li> <li>Fecha: (1994 - 2000 ) </li> CRISTAL  Plano de mano IZQUIERDA Térmico Negro</li></ul>;<li>Marca: Audi </li><li>Modelo: A3 - A4 - A6 </li> <li>Fecha: (1994 - 2000 ) </li> CRISTAL  Plano de mano IZQUIERDA Térmico Negro</li></ul>;Marca: Audi, Modelo: A3 - A4 - A6,Espejo retrovisor CRISTAL, , Plano, de mano IZQUIERDA, Térmico Negro;;Marca: Audi Modelo: A3 - A4 - A6Espejo retrovisor CRISTAL  Plano de mano IZQUIERDA Térmico Negro;Marca: Audi Modelo: A3 - A4 - A6Espejo retrovisor CRISTAL  Plano de mano IZQUIERDA Térmico Negro;;;;1;;;1;http://www.2automocion.com/fotos/670010.jpg;;;;;1;1;1;;;1;;;1994;2000;;2;;2;2;Térmico Negro
;1;670016;;9,53;;;1;;;;;670016;;;;;;;;;;1;20;;;;;;<li>Marca: Citroen // Fiat // Peugeot </li><li>Modelo: Jumper // Ducato // Boxer </li> <li>Fecha: (1999 - 2006 ) </li> CRISTAL  Convexo de mano DERECHA Negro</li></ul>;<li>Marca: Citroen // Fiat // Peugeot </li><li>Modelo: Jumper // Ducato // Boxer </li> <li>Fecha: (1999 - 2006 ) </li> CRISTAL  Convexo de mano DERECHA Negro</li></ul>;Marca: Citroen // Fiat // Peugeot, Modelo: Jumper // Ducato // Boxer,Espejo retrovisor CRISTAL, , Convexo, de mano DERECHA, Negro;;Marca: Citroen // Fiat // Peugeot Modelo: Jumper // Ducato // BoxerEspejo retrovisor CRISTAL  Convexo de mano DERECHA Negro;Marca: Citroen // Fiat // Peugeot Modelo: Jumper // Ducato // BoxerEspejo retrovisor CRISTAL  Convexo de mano DERECHA Negro;;;;1;;;1;http://www.2automocion.com/fotos/670016.jpg;;;;;1;1;1;;;1;;;1999;2006;;2;;1;1;Negro
;1;670017;;9,53;;;1;;;;;670017;;;;;;;;;;1;9;;;;;;<li>Marca: Citroen // Fiat // Peugeot </li><li>Modelo: Jumper // Ducato // Boxer </li> <li>Fecha: (1999 - 2006 ) </li> CRISTAL  Convexo de mano IZQUIERDA Negro</li></ul>;<li>Marca: Citroen // Fiat // Peugeot </li><li>Modelo: Jumper // Ducato // Boxer </li> <li>Fecha: (1999 - 2006 ) </li> CRISTAL  Convexo de mano IZQUIERDA Negro</li></ul>;Marca: Citroen // Fiat // Peugeot, Modelo: Jumper // Ducato // Boxer,Espejo retrovisor CRISTAL, , Convexo, de mano IZQUIERDA, Negro;;Marca: Citroen // Fiat // Peugeot Modelo: Jumper // Ducato // BoxerEspejo retrovisor CRISTAL  Convexo de mano IZQUIERDA Negro;Marca: Citroen // Fiat // Peugeot Modelo: Jumper // Ducato // BoxerEspejo retrovisor CRISTAL  Convexo de mano IZQUIERDA Negro;;;;1;;;1;http://www.2automocion.com/fotos/670017.jpg;;;;;1;1;1;;;1;;;1999;2006;;2;;1;2;Negro
;1;670018;;9,21;;;1;;;;;670018;;;;;;;;;;1;19;;;;;;<li>Marca: Citroen // Fiat // Peugeot </li><li>Modelo: Jumper // Ducato // Boxer </li> <li>Fecha: (1994 - 1999 ) </li> CRISTAL  Convexo de mano AMBIDIESTRO Negro</li></ul>;<li>Marca: Citroen // Fiat // Peugeot </li><li>Modelo: Jumper // Ducato // Boxer </li> <li>Fecha: (1994 - 1999 ) </li> CRISTAL  Convexo de mano AMBIDIESTRO Negro</li></ul>;Marca: Citroen // Fiat // Peugeot, Modelo: Jumper // Ducato // Boxer,Espejo retrovisor CRISTAL, , Convexo, de mano AMBIDIESTRO, Negro;;Marca: Citroen // Fiat // Peugeot Modelo: Jumper // Ducato // BoxerEspejo retrovisor CRISTAL  Convexo de mano AMBIDIESTRO Negro;Marca: Citroen // Fiat // Peugeot Modelo: Jumper // Ducato // BoxerEspejo retrovisor CRISTAL  Convexo de mano AMBIDIESTRO Negro;;;;1;;;1;http://www.2automocion.com/fotos/670018.jpg;;;;;1;1;1;;;1;;;1994;1999;;2;;1;;Negro
;1;670019;;13,59;;;1;;;;;670019;;;;;;;;;;1;2;;;;;;<li>Marca: Citroen // Fiat // Peugeot </li><li>Modelo: Jumper // Ducato // Boxer </li> <li>Fecha: (1999 - 2006 ) </li> CRISTAL  Convexo de mano DERECHA Negro</li></ul>;<li>Marca: Citroen // Fiat // Peugeot </li><li>Modelo: Jumper // Ducato // Boxer </li> <li>Fecha: (1999 - 2006 ) </li> CRISTAL  Convexo de mano DERECHA Negro</li></ul>;Marca: Citroen // Fiat // Peugeot, Modelo: Jumper // Ducato // Boxer,Espejo retrovisor CRISTAL, , Convexo, de mano DERECHA, Negro;;Marca: Citroen // Fiat // Peugeot Modelo: Jumper // Ducato // BoxerEspejo retrovisor CRISTAL  Convexo de mano DERECHA Negro;Marca: Citroen // Fiat // Peugeot Modelo: Jumper // Ducato // BoxerEspejo retrovisor CRISTAL  Convexo de mano DERECHA Negro;;;;1;;;1;http://www.2automocion.com/fotos/670019.jpg;;;;;1;1;1;;;1;;;1999;2006;;2;;1;1;Negro
;1;670020;;13,59;;;1;;;;;670020;;;;;;;;;;1;5;;;;;;<li>Marca: Citroen // Fiat // Peugeot </li><li>Modelo: Jumper // Ducato // Boxer </li> <li>Fecha: (1999 - 2006 ) </li> CRISTAL  Convexo de mano IZQUIERDA Negro</li></ul>;<li>Marca: Citroen // Fiat // Peugeot </li><li>Modelo: Jumper // Ducato // Boxer </li> <li>Fecha: (1999 - 2006 ) </li> CRISTAL  Convexo de mano IZQUIERDA Negro</li></ul>;Marca: Citroen // Fiat // Peugeot, Modelo: Jumper // Ducato // Boxer,Espejo retrovisor CRISTAL, , Convexo, de mano IZQUIERDA, Negro;;Marca: Citroen // Fiat // Peugeot Modelo: Jumper // Ducato // BoxerEspejo retrovisor CRISTAL  Convexo de mano IZQUIERDA Negro;Marca: Citroen // Fiat // Peugeot Modelo: Jumper // Ducato // BoxerEspejo retrovisor CRISTAL  Convexo de mano IZQUIERDA Negro;;;;1;;;1;http://www.2automocion.com/fotos/670020.jpg;;;;;1;1;1;;;1;;;1999;2006;;2;;1;2;Negro
;1;670021;;10,15;;;1;;;;;670021;;;;;;;;;;1;6;;;;;;<li>Marca: Fiat // Lancia </li><li>Modelo: Idea // Stilo // Musa </li> <li>Fecha: (2001 - 2014 ) </li> CRISTAL  Convexo de mano DERECHA Negro</li></ul>;<li>Marca: Fiat // Lancia </li><li>Modelo: Idea // Stilo // Musa </li> <li>Fecha: (2001 - 2014 ) </li> CRISTAL  Convexo de mano DERECHA Negro</li></ul>;Marca: Fiat // Lancia, Modelo: Idea // Stilo // Musa,Espejo retrovisor CRISTAL, , Convexo, de mano DERECHA, Negro;;Marca: Fiat // Lancia Modelo: Idea // Stilo // MusaEspejo retrovisor CRISTAL  Convexo de mano DERECHA Negro;Marca: Fiat // Lancia Modelo: Idea // Stilo // MusaEspejo retrovisor CRISTAL  Convexo de mano DERECHA Negro;;;;1;;;1;http://www.2automocion.com/fotos/670021.jpg;;;;;1;1;1;;;1;;;2001;2014;;2;;1;1;Negro
;1;670022;;10,15;;;1;;;;;670022;;;;;;;;;;1;2;;;;;;<li>Marca: Fiat // Lancia </li><li>Modelo: Idea // Stilo // Musa </li> <li>Fecha: (2001 - 2014 ) </li> CRISTAL  Convexo de mano IZQUIERDA Negro</li></ul>;<li>Marca: Fiat // Lancia </li><li>Modelo: Idea // Stilo // Musa </li> <li>Fecha: (2001 - 2014 ) </li> CRISTAL  Convexo de mano IZQUIERDA Negro</li></ul>;Marca: Fiat // Lancia, Modelo: Idea // Stilo // Musa,Espejo retrovisor CRISTAL, , Convexo, de mano IZQUIERDA, Negro;;Marca: Fiat // Lancia Modelo: Idea // Stilo // MusaEspejo retrovisor CRISTAL  Convexo de mano IZQUIERDA Negro;Marca: Fiat // Lancia Modelo: Idea // Stilo // MusaEspejo retrovisor CRISTAL  Convexo de mano IZQUIERDA Negro;;;;1;;;1;http://www.2automocion.com/fotos/670022.jpg;;;;;1;1;1;;;1;;;2001;2014;;2;;1;2;Negro
;1;670023;;14,84;;;1;;;;;670023;;;;;;;;;;1;3;;;;;;<li>Marca: Fiat // Lancia </li><li>Modelo: Idea // Stilo // Musa </li> <li>Fecha: (2001 - 2014 ) </li> CRISTAL  Convexo de mano DERECHA Térmico Negro</li></ul>;<li>Marca: Fiat // Lancia </li><li>Modelo: Idea // Stilo // Musa </li> <li>Fecha: (2001 - 2014 ) </li> CRISTAL  Convexo de mano DERECHA Térmico Negro</li></ul>;Marca: Fiat // Lancia, Modelo: Idea // Stilo // Musa,Espejo retrovisor CRISTAL, , Convexo, de mano DERECHA, Térmico Negro;;Marca: Fiat // Lancia Modelo: Idea // Stilo // MusaEspejo retrovisor CRISTAL  Convexo de mano DERECHA Térmico Negro;Marca: Fiat // Lancia Modelo: Idea // Stilo // MusaEspejo retrovisor CRISTAL  Convexo de mano DERECHA Térmico Negro;;;;1;;;1;http://www.2automocion.com/fotos/670023.jpg;;;;;1;1;1;;;1;;;2001;2014;;2;;1;1;Térmico Negro
;1;670024;;14,84;;;1;;;;;670024;;;;;;;;;;1;0;;;;;;<li>Marca: Fiat // Lancia </li><li>Modelo: Idea // Stilo // Musa </li> <li>Fecha: (2001 - 2014 ) </li> CRISTAL  Convexo de mano IZQUIERDA Térmico Negro</li></ul>;<li>Marca: Fiat // Lancia </li><li>Modelo: Idea // Stilo // Musa </li> <li>Fecha: (2001 - 2014 ) </li> CRISTAL  Convexo de mano IZQUIERDA Térmico Negro</li></ul>;Marca: Fiat // Lancia, Modelo: Idea // Stilo // Musa,Espejo retrovisor CRISTAL, , Convexo, de mano IZQUIERDA, Térmico Negro;;Marca: Fiat // Lancia Modelo: Idea // Stilo // MusaEspejo retrovisor CRISTAL  Convexo de mano IZQUIERDA Térmico Negro;Marca: Fiat // Lancia Modelo: Idea // Stilo // MusaEspejo retrovisor CRISTAL  Convexo de mano IZQUIERDA Térmico Negro;;;;1;;;1;http://www.2automocion.com/fotos/670024.jpg;;;;;1;1;1;;;1;;;2001;2014;;2;;1;2;Térmico Negro
;1;670033;;5,78;;;1;;;;;670033;;;;;;;;;;1;35;;;;;;<li>Marca: Citroen // Peugeot </li><li>Modelo: Berlingo // Partner </li> <li>Fecha: (1996 - 2008 ) </li> CRISTAL  Convexo de mano DERECHA Negro</li></ul>;<li>Marca: Citroen // Peugeot </li><li>Modelo: Berlingo // Partner </li> <li>Fecha: (1996 - 2008 ) </li> CRISTAL  Convexo de mano DERECHA Negro</li></ul>;Marca: Citroen // Peugeot, Modelo: Berlingo // Partner,Espejo retrovisor CRISTAL, , Convexo, de mano DERECHA, Negro;;Marca: Citroen // Peugeot Modelo: Berlingo // PartnerEspejo retrovisor CRISTAL  Convexo de mano DERECHA Negro;Marca: Citroen // Peugeot Modelo: Berlingo // PartnerEspejo retrovisor CRISTAL  Convexo de mano DERECHA Negro;;;;1;;;1;http://www.2automocion.com/fotos/670033.jpg;;;;;1;1;1;;;1;;;1996;2008;;2;;1;1;Negro
;1;670034;;5,78;;;1;;;;;670034;;;;;;;;;;1;31;;;;;;<li>Marca: Citroen // Peugeot </li><li>Modelo: Berlingo // Partner </li> <li>Fecha: (1996 - 2008 ) </li> CRISTAL  Convexo de mano IZQUIERDA Negro</li></ul>;<li>Marca: Citroen // Peugeot </li><li>Modelo: Berlingo // Partner </li> <li>Fecha: (1996 - 2008 ) </li> CRISTAL  Convexo de mano IZQUIERDA Negro</li></ul>;Marca: Citroen // Peugeot, Modelo: Berlingo // Partner,Espejo retrovisor CRISTAL, , Convexo, de mano IZQUIERDA, Negro;;Marca: Citroen // Peugeot Modelo: Berlingo // PartnerEspejo retrovisor CRISTAL  Convexo de mano IZQUIERDA Negro;Marca: Citroen // Peugeot Modelo: Berlingo // PartnerEspejo retrovisor CRISTAL  Convexo de mano IZQUIERDA Negro;;;;1;;;1;http://www.2automocion.com/fotos/670034.jpg;;;;;1;1;1;;;1;;;1996;2008;;2;;1;2;Negro
;1;670035;31;5,46;;;1;;;;;670035;;;;;;;;;;1;9;;;;;;<li>Marca: Ford </li><li>Modelo: Escort - Fiesta </li> <li>Fecha: (1995 - 2000 ) </li> CRISTAL  Convexo de mano DERECHA Negro</li></ul>;<li>Marca: Ford </li><li>Modelo: Escort - Fiesta </li> <li>Fecha: (1995 - 2000 ) </li> CRISTAL  Convexo de mano DERECHA Negro</li></ul>;Marca: Ford, Modelo: Escort - Fiesta,Espejo retrovisor CRISTAL, , Convexo, de mano DERECHA, Negro;;Marca: Ford Modelo: Escort - FiestaEspejo retrovisor CRISTAL  Convexo de mano DERECHA Negro;Marca: Ford Modelo: Escort - FiestaEspejo retrovisor CRISTAL  Convexo de mano DERECHA Negro;;;;1;;;1;http://www.2automocion.com/fotos/670035.jpg;;;;;1;1;1;;;1;;;1995;2000;;2;;1;1;Negro
;1;670036;31;5,46;;;1;;;;;670036;;;;;;;;;;1;14;;;;;;<li>Marca: Ford </li><li>Modelo: Escort - Fiesta </li> <li>Fecha: (1995 - 2000 ) </li> CRISTAL  Convexo de mano IZQUIERDA Negro</li></ul>;<li>Marca: Ford </li><li>Modelo: Escort - Fiesta </li> <li>Fecha: (1995 - 2000 ) </li> CRISTAL  Convexo de mano IZQUIERDA Negro</li></ul>;Marca: Ford, Modelo: Escort - Fiesta,Espejo retrovisor CRISTAL, , Convexo, de mano IZQUIERDA, Negro;;Marca: Ford Modelo: Escort - FiestaEspejo retrovisor CRISTAL  Convexo de mano IZQUIERDA Negro;Marca: Ford Modelo: Escort - FiestaEspejo retrovisor CRISTAL  Convexo de mano IZQUIERDA Negro;;;;1;;;1;http://www.2automocion.com/fotos/670036.jpg;;;;;1;1;1;;;1;;;1995;2000;;2;;1;2;Negro
