﻿"Id(no rellenar);Activo (0=No/1=No);Nombre;Categorias (x	y	""z...);Precio con Iva Incluido (PVP);Regla Impuestos (IVA) (1=21% 2=10% 3=4%);Precio mayorista;En venta 0=noO 1=si (0/1);Importe descuento;Descuento porcentual;Discount desde (yyyy-mm-dd);Discount hasta (yyyy-mm-dd);Referencia comercio;referencia proveedor;Proveedor;Fabricante;EAN13(código de barras);UPC;Ecotasa;ancho;alto;profundidad;Weight;Cantidad;Cantidad mínima;Visibilidad;Coste adicional envio;Unidad;ratio precio unitario;Descripción corta;Descripción larga;Tags (x""	y	""z...);meta_title;meta_keywords;meta_description;Enlace reescrito;Text cuando está en stock;Text when backorder allowed;Disponible para pedido (0 = No""	"" 1 = Yes);Fecha disponibilidad de producto;Fecha creación producto;Mostrar precio (0 = No""	"" 1 = Yes);Imagen URLs (x""	y	""z...);Borra imágenes existentes (0 = No""	"" 1 = Yes);Feature(Name:Value:Position);Disponible sólo online (0 = No""	"" 1 = Yes);Condición;Personalizabke (0 = No""	"" 1 = Yes);Uploadable files (0 = No""	"" 1 = Yes);Text fields (0 = No""	"" 1 = Yes);Out_of_stock;Advanced stock management;ID / Nombre de tiienda;carroceria;version;fecha_inicio;fecha_fin;puertas;despiece;regulacion;cristal;mano;caracteristicas"";;;;;;;;;;;;;;;;;;;;;;;;;;;;;;;;;;;;;;;;;;;;;;;;;;;;;;;;;;;;;;;;;;;;;;;;;;;;;;;;;;;;;;;;;;;;;;;;;;;;;;;;;;;;;;;;;;;;;;;;;;;;;;;;;;;;;;;;;;;;;;;;;;;;;;;;;;;;;;;;;;;;;;;;;;;;;;;;;;;;;;;;;;;;;;;;;;;;;;;;;;;;;;;;;;;;;;;;;;;;;;;;;;;;;;;;;;;;;;;;;;;;;;;;;;;;;;;;;;;;;;;;;;;;;;;;;;;;;;;;;;;;;;;;;;;;;;;;;;;;;;;;;;;;;;;;;;;;;;;;;;;;;;;;;;;;;;;;;;;;;;;;;;;;;;;;;;;;;;;;																																																														;;;;;;;;;;;;;;;;;;;;;;;;;;;;;;;;;;;;;;;;;;;;;;;;;;;;;;;;;;;;;;;;;;;;;;;;;;;;;;;;;;;;;;;;;;;;;;;;;;;;;;;;;;;;;;;;;;;;;;;;;;;;;;;;;;;;;;;;;;;;;;;;;;;;;;;;;;;;;;;;;;;;;;;;;;;;;;;;;;;;;;;;;;																																																														";;;;;;;;;;;;;;;;;;;;;;;;;;;;;;;;;;;;;;;;;;;;;;;;;;;;;;;;
;1;616013;;;;;1;;;;;616013;;;;;;;;;;1;5;;;;;;<li>Marca:  </li><li>Modelo:  </li> - 2014 ) </li>    de mano  </li></ul>;<li>Marca:  </li><li>Modelo:  </li> - 2014 ) </li>    de mano  </li></ul>;Marca: , Modelo: ,Espejo retrovisor , , , de mano , ;;Marca:  Modelo: Espejo retrovisor    de mano  ;Marca:  Modelo: Espejo retrovisor    de mano  ;;;;1;;;1;;;;;;1;1;1;;;1;;;;2014
;1;616013;;;;;1;;;;;616013;;;;;;;;;;1;5;;;;;;<li>Marca:  </li><li>Modelo:  </li> - 2014 ) </li>    de mano  </li></ul>;<li>Marca:  </li><li>Modelo:  </li> - 2014 ) </li>    de mano  </li></ul>;Marca: , Modelo: ,Espejo retrovisor , , , de mano , ;;Marca:  Modelo: Espejo retrovisor    de mano  ;Marca:  Modelo: Espejo retrovisor    de mano  ;;;;1;;;1;;;;;;1;1;1;;;1;;;;2014
